EESchema Schematic File Version 2
LIBS:power
LIBS:device
LIBS:transistors
LIBS:conn
LIBS:linear
LIBS:regul
LIBS:74xx
LIBS:cmos4000
LIBS:adc-dac
LIBS:memory
LIBS:xilinx
LIBS:microcontrollers
LIBS:dsp
LIBS:microchip
LIBS:analog_switches
LIBS:motorola
LIBS:texas
LIBS:intel
LIBS:audio
LIBS:interface
LIBS:digital-audio
LIBS:philips
LIBS:display
LIBS:cypress
LIBS:siliconi
LIBS:opto
LIBS:atmel
LIBS:contrib
LIBS:valves
LIBS:motordrv
LIBS:cnc_shield-cache
EELAYER 25 0
EELAYER END
$Descr A4 11693 8268
encoding utf-8
Sheet 1 1
Title ""
Date ""
Rev ""
Comp ""
Comment1 ""
Comment2 ""
Comment3 ""
Comment4 ""
$EndDescr
$Comp
L A4988 U1
U 1 1 589E2344
P 5400 2850
F 0 "U1" H 5400 2350 60  0000 C CNN
F 1 "A4988" H 5400 3350 60  0000 C CNN
F 2 "motordrv:A4988" H 5100 4000 60  0001 C CNN
F 3 "" H 5100 4000 60  0001 C CNN
	1    5400 2850
	1    0    0    -1  
$EndComp
$Comp
L CONN_01X04 P8
U 1 1 589E2485
P 6650 2850
F 0 "P8" H 6650 3100 50  0000 C CNN
F 1 "CONN_01X04" V 6750 2850 50  0000 C CNN
F 2 "Pin_Headers:Pin_Header_Straight_1x04" H 6650 2850 50  0001 C CNN
F 3 "" H 6650 2850 50  0000 C CNN
	1    6650 2850
	1    0    0    1   
$EndComp
$Comp
L CONN_01X03 P4
U 1 1 589E2575
P 1900 5600
F 0 "P4" H 1900 5800 50  0000 C CNN
F 1 "CONN_01X03" V 2000 5600 50  0000 C CNN
F 2 "Pin_Headers:Pin_Header_Straight_1x03" H 1900 5600 50  0001 C CNN
F 3 "" H 1900 5600 50  0000 C CNN
	1    1900 5600
	-1   0    0    1   
$EndComp
$Comp
L CONN_01X03 P6
U 1 1 589E261A
P 2650 5600
F 0 "P6" H 2650 5800 50  0000 C CNN
F 1 "CONN_01X03" V 2750 5600 50  0000 C CNN
F 2 "Pin_Headers:Pin_Header_Straight_1x03" H 2650 5600 50  0001 C CNN
F 3 "" H 2650 5600 50  0000 C CNN
	1    2650 5600
	-1   0    0    1   
$EndComp
$Comp
L CONN_01X03 P5
U 1 1 589E2658
P 1900 6150
F 0 "P5" H 1900 6350 50  0000 C CNN
F 1 "CONN_01X03" V 2000 6150 50  0000 C CNN
F 2 "Pin_Headers:Pin_Header_Straight_1x03" H 1900 6150 50  0001 C CNN
F 3 "" H 1900 6150 50  0000 C CNN
	1    1900 6150
	-1   0    0    1   
$EndComp
$Comp
L CONN_01X03 P7
U 1 1 589E269A
P 2650 6150
F 0 "P7" H 2650 6350 50  0000 C CNN
F 1 "CONN_01X03" V 2750 6150 50  0000 C CNN
F 2 "Pin_Headers:Pin_Header_Straight_1x03" H 2650 6150 50  0001 C CNN
F 3 "" H 2650 6150 50  0000 C CNN
	1    2650 6150
	-1   0    0    1   
$EndComp
$Comp
L D D1
U 1 1 589E39BF
P 4500 1050
F 0 "D1" H 4500 1150 50  0000 C CNN
F 1 "D" H 4500 950 50  0000 C CNN
F 2 "Diodes_ThroughHole:Diode_DO-35_SOD27_Horizontal_RM10" H 4500 1050 50  0001 C CNN
F 3 "" H 4500 1050 50  0000 C CNN
	1    4500 1050
	-1   0    0    -1  
$EndComp
$Comp
L R R3
U 1 1 589E3A92
P 4650 3200
F 0 "R3" V 4730 3200 50  0000 C CNN
F 1 "R" V 4650 3200 50  0000 C CNN
F 2 "Resistors_ThroughHole:Resistor_Horizontal_RM7mm" V 4580 3200 50  0001 C CNN
F 3 "" H 4650 3200 50  0000 C CNN
	1    4650 3200
	0    1    1    0   
$EndComp
$Comp
L R R2
U 1 1 589E3C44
P 4650 3100
F 0 "R2" V 4550 3100 50  0000 C CNN
F 1 "R" V 4650 3100 50  0000 C CNN
F 2 "Resistors_ThroughHole:Resistor_Horizontal_RM7mm" V 4580 3100 50  0001 C CNN
F 3 "" H 4650 3100 50  0000 C CNN
	1    4650 3100
	0    1    1    0   
$EndComp
$Comp
L D D2
U 1 1 589E3E62
P 4500 1700
F 0 "D2" H 4500 1800 50  0000 C CNN
F 1 "D" H 4500 1600 50  0000 C CNN
F 2 "Diodes_ThroughHole:Diode_DO-35_SOD27_Horizontal_RM10" H 4500 1700 50  0001 C CNN
F 3 "" H 4500 1700 50  0000 C CNN
	1    4500 1700
	-1   0    0    -1  
$EndComp
$Comp
L R R1
U 1 1 589E3EFE
P 6300 1050
F 0 "R1" V 6380 1050 50  0000 C CNN
F 1 "R" V 6300 1050 50  0000 C CNN
F 2 "Resistors_ThroughHole:Resistor_Horizontal_RM7mm" V 6230 1050 50  0001 C CNN
F 3 "" H 6300 1050 50  0000 C CNN
	1    6300 1050
	0    -1   -1   0   
$EndComp
$Comp
L LED D3
U 1 1 589E3FA2
P 5850 1050
F 0 "D3" H 5850 1150 50  0000 C CNN
F 1 "LED" H 5850 950 50  0000 C CNN
F 2 "LEDs:LED-5MM" H 5850 1050 50  0001 C CNN
F 3 "" H 5850 1050 50  0000 C CNN
	1    5850 1050
	-1   0    0    -1  
$EndComp
$Comp
L GND #PWR01
U 1 1 589E5D8E
P 6000 3600
F 0 "#PWR01" H 6000 3350 50  0001 C CNN
F 1 "GND" H 6000 3450 50  0000 C CNN
F 2 "" H 6000 3600 50  0000 C CNN
F 3 "" H 6000 3600 50  0000 C CNN
	1    6000 3600
	1    0    0    -1  
$EndComp
$Comp
L VCC #PWR02
U 1 1 589E5F20
P 6250 2500
F 0 "#PWR02" H 6250 2350 50  0001 C CNN
F 1 "VCC" V 6250 2700 50  0000 C CNN
F 2 "" H 6250 2500 50  0000 C CNN
F 3 "" H 6250 2500 50  0000 C CNN
	1    6250 2500
	0    1    1    0   
$EndComp
$Comp
L VCC #PWR03
U 1 1 589E5F96
P 4750 1050
F 0 "#PWR03" H 4750 900 50  0001 C CNN
F 1 "VCC" V 4750 1250 50  0000 C CNN
F 2 "" H 4750 1050 50  0000 C CNN
F 3 "" H 4750 1050 50  0000 C CNN
	1    4750 1050
	0    1    1    0   
$EndComp
$Comp
L VDD #PWR04
U 1 1 589E6012
P 6250 3100
F 0 "#PWR04" H 6250 2950 50  0001 C CNN
F 1 "VDD" V 6250 3300 50  0000 C CNN
F 2 "" H 6250 3100 50  0000 C CNN
F 3 "" H 6250 3100 50  0000 C CNN
	1    6250 3100
	0    1    1    0   
$EndComp
$Comp
L VDD #PWR05
U 1 1 589E609C
P 4750 1700
F 0 "#PWR05" H 4750 1550 50  0001 C CNN
F 1 "VDD" V 4750 1900 50  0000 C CNN
F 2 "" H 4750 1700 50  0000 C CNN
F 3 "" H 4750 1700 50  0000 C CNN
	1    4750 1700
	0    1    1    0   
$EndComp
$Comp
L CONN_01X02 P3
U 1 1 589E6D71
P 4050 1100
F 0 "P3" H 4050 1250 50  0000 C CNN
F 1 "CONN_01X02" V 4150 1100 50  0000 C CNN
F 2 "Terminal_Blocks:TerminalBlock_Pheonix_MKDS1.5-2pol" H 4050 1100 50  0001 C CNN
F 3 "" H 4050 1100 50  0000 C CNN
	1    4050 1100
	-1   0    0    1   
$EndComp
Text GLabel 4400 2600 0    60   Input ~ 0
M1_MS1
Text GLabel 4400 2700 0    60   Input ~ 0
M1_MS2
Text GLabel 4400 2800 0    60   Input ~ 0
M1_MS3
Text GLabel 4400 2500 0    60   Input ~ 0
M1_EN
Text GLabel 4400 3100 0    60   Input ~ 0
M1_STEP
Text GLabel 4400 3200 0    60   Input ~ 0
M1_DIR
Text GLabel 2700 4300 2    60   Input ~ 0
M1_DIR
Text GLabel 2700 4200 2    60   Input ~ 0
M1_STEP
$Comp
L VDD #PWR06
U 1 1 589E87DA
P 2200 5400
F 0 "#PWR06" H 2200 5250 50  0001 C CNN
F 1 "VDD" H 2200 5550 50  0000 C CNN
F 2 "" H 2200 5400 50  0000 C CNN
F 3 "" H 2200 5400 50  0000 C CNN
	1    2200 5400
	-1   0    0    -1  
$EndComp
Text GLabel 2950 5500 2    60   Input ~ 0
M1_MS1
Text GLabel 2950 5600 2    60   Input ~ 0
M1_MS2
Text GLabel 2950 5700 2    60   Input ~ 0
M1_MS3
Text GLabel 2950 6050 2    60   Input ~ 0
M2_MS1
Text GLabel 2950 6150 2    60   Input ~ 0
M2_MS2
Text GLabel 2950 6250 2    60   Input ~ 0
M2_MS3
$Comp
L +3.3V #PWR07
U 1 1 589EB0DC
P 2200 2550
F 0 "#PWR07" H 2200 2400 50  0001 C CNN
F 1 "+3.3V" V 2200 2800 50  0000 C CNN
F 2 "" H 2200 2550 50  0000 C CNN
F 3 "" H 2200 2550 50  0000 C CNN
	1    2200 2550
	0    1    1    0   
$EndComp
$Comp
L +5V #PWR08
U 1 1 589EB112
P 2200 1550
F 0 "#PWR08" H 2200 1400 50  0001 C CNN
F 1 "+5V" V 2200 1750 50  0000 C CNN
F 2 "" H 2200 1550 50  0000 C CNN
F 3 "" H 2200 1550 50  0000 C CNN
	1    2200 1550
	0    1    1    0   
$EndComp
Text GLabel 2700 4000 2    60   Input ~ 0
M2_STEP
Text GLabel 2700 4100 2    60   Input ~ 0
M2_DIR
$Comp
L +5V #PWR09
U 1 1 589EC4FB
P 4250 1700
F 0 "#PWR09" H 4250 1550 50  0001 C CNN
F 1 "+5V" V 4250 1900 50  0000 C CNN
F 2 "" H 4250 1700 50  0000 C CNN
F 3 "" H 4250 1700 50  0000 C CNN
	1    4250 1700
	0    -1   -1   0   
$EndComp
$Comp
L VCC #PWR010
U 1 1 589EF162
P 5550 1050
F 0 "#PWR010" H 5550 900 50  0001 C CNN
F 1 "VCC" V 5550 1250 50  0000 C CNN
F 2 "" H 5550 1050 50  0000 C CNN
F 3 "" H 5550 1050 50  0000 C CNN
	1    5550 1050
	0    -1   -1   0   
$EndComp
$Comp
L CP C1
U 1 1 589F45BA
P 6150 3350
F 0 "C1" H 6175 3450 50  0000 L CNN
F 1 "CP" H 6175 3250 50  0000 L CNN
F 2 "Capacitors_ThroughHole:C_Radial_D8_L13_P3.8" H 6188 3200 50  0001 C CNN
F 3 "" H 6150 3350 50  0000 C CNN
	1    6150 3350
	1    0    0    -1  
$EndComp
$Comp
L GND #PWR011
U 1 1 589F4EA7
P 4350 1250
F 0 "#PWR011" H 4350 1000 50  0001 C CNN
F 1 "GND" H 4350 1100 50  0000 C CNN
F 2 "" H 4350 1250 50  0000 C CNN
F 3 "" H 4350 1250 50  0000 C CNN
	1    4350 1250
	1    0    0    -1  
$EndComp
$Comp
L GND #PWR012
U 1 1 589F4F6F
P 6550 1150
F 0 "#PWR012" H 6550 900 50  0001 C CNN
F 1 "GND" H 6550 1000 50  0000 C CNN
F 2 "" H 6550 1150 50  0000 C CNN
F 3 "" H 6550 1150 50  0000 C CNN
	1    6550 1150
	1    0    0    -1  
$EndComp
$Comp
L A4988 U2
U 1 1 589F6F8D
P 5400 4500
F 0 "U2" H 5400 4000 60  0000 C CNN
F 1 "A4988" H 5400 5000 60  0000 C CNN
F 2 "motordrv:A4988" H 5100 5650 60  0001 C CNN
F 3 "" H 5100 5650 60  0001 C CNN
	1    5400 4500
	1    0    0    -1  
$EndComp
$Comp
L CONN_01X04 P9
U 1 1 589F6F93
P 6650 4500
F 0 "P9" H 6650 4750 50  0000 C CNN
F 1 "CONN_01X04" V 6750 4500 50  0000 C CNN
F 2 "Pin_Headers:Pin_Header_Straight_1x04" H 6650 4500 50  0001 C CNN
F 3 "" H 6650 4500 50  0000 C CNN
	1    6650 4500
	1    0    0    1   
$EndComp
$Comp
L R R5
U 1 1 589F6F99
P 4650 4850
F 0 "R5" V 4730 4850 50  0000 C CNN
F 1 "R" V 4650 4850 50  0000 C CNN
F 2 "Resistors_ThroughHole:Resistor_Horizontal_RM7mm" V 4580 4850 50  0001 C CNN
F 3 "" H 4650 4850 50  0000 C CNN
	1    4650 4850
	0    1    1    0   
$EndComp
$Comp
L R R4
U 1 1 589F6F9F
P 4650 4750
F 0 "R4" V 4550 4750 50  0000 C CNN
F 1 "R" V 4650 4750 50  0000 C CNN
F 2 "Resistors_ThroughHole:Resistor_Horizontal_RM7mm" V 4580 4750 50  0001 C CNN
F 3 "" H 4650 4750 50  0000 C CNN
	1    4650 4750
	0    1    1    0   
$EndComp
$Comp
L GND #PWR013
U 1 1 589F6FA5
P 6000 5250
F 0 "#PWR013" H 6000 5000 50  0001 C CNN
F 1 "GND" H 6000 5100 50  0000 C CNN
F 2 "" H 6000 5250 50  0000 C CNN
F 3 "" H 6000 5250 50  0000 C CNN
	1    6000 5250
	1    0    0    -1  
$EndComp
$Comp
L VCC #PWR014
U 1 1 589F6FAB
P 6250 4150
F 0 "#PWR014" H 6250 4000 50  0001 C CNN
F 1 "VCC" V 6250 4350 50  0000 C CNN
F 2 "" H 6250 4150 50  0000 C CNN
F 3 "" H 6250 4150 50  0000 C CNN
	1    6250 4150
	0    1    1    0   
$EndComp
$Comp
L VDD #PWR015
U 1 1 589F6FB1
P 6250 4750
F 0 "#PWR015" H 6250 4600 50  0001 C CNN
F 1 "VDD" V 6250 4950 50  0000 C CNN
F 2 "" H 6250 4750 50  0000 C CNN
F 3 "" H 6250 4750 50  0000 C CNN
	1    6250 4750
	0    1    1    0   
$EndComp
Text GLabel 4400 4250 0    60   Input ~ 0
M2_MS1
Text GLabel 4400 4350 0    60   Input ~ 0
M2_MS2
Text GLabel 4400 4450 0    60   Input ~ 0
M2_MS3
Text GLabel 4400 4750 0    60   Input ~ 0
M2_STEP
Text GLabel 4400 4850 0    60   Input ~ 0
M2_DIR
$Comp
L CP C2
U 1 1 589F6FCE
P 6150 5000
F 0 "C2" H 6175 5100 50  0000 L CNN
F 1 "CP" H 6175 4900 50  0000 L CNN
F 2 "Capacitors_ThroughHole:C_Radial_D8_L13_P3.8" H 6188 4850 50  0001 C CNN
F 3 "" H 6150 5000 50  0000 C CNN
	1    6150 5000
	1    0    0    -1  
$EndComp
$Comp
L R R8
U 1 1 589EAB8F
P 5900 1700
F 0 "R8" V 5980 1700 50  0000 C CNN
F 1 "R" V 5900 1700 50  0000 C CNN
F 2 "Resistors_ThroughHole:Resistor_Horizontal_RM7mm" V 5830 1700 50  0001 C CNN
F 3 "" H 5900 1700 50  0000 C CNN
	1    5900 1700
	0    -1   -1   0   
$EndComp
$Comp
L R R9
U 1 1 589EAB95
P 5900 1900
F 0 "R9" V 5980 1900 50  0000 C CNN
F 1 "R" V 5900 1900 50  0000 C CNN
F 2 "Resistors_ThroughHole:Resistor_Horizontal_RM7mm" V 5830 1900 50  0001 C CNN
F 3 "" H 5900 1900 50  0000 C CNN
	1    5900 1900
	0    1    1    0   
$EndComp
Text GLabel 4400 4150 0    60   Input ~ 0
M2_EN
$Comp
L VDD #PWR016
U 1 1 589EAB9C
P 5650 1700
F 0 "#PWR016" H 5650 1550 50  0001 C CNN
F 1 "VDD" V 5650 1900 50  0000 C CNN
F 2 "" H 5650 1700 50  0000 C CNN
F 3 "" H 5650 1700 50  0000 C CNN
	1    5650 1700
	0    -1   -1   0   
$EndComp
$Comp
L A4988 U3
U 1 1 58A47F97
P 5400 6150
F 0 "U3" H 5400 5650 60  0000 C CNN
F 1 "A4988" H 5400 6650 60  0000 C CNN
F 2 "motordrv:A4988" H 5100 7300 60  0001 C CNN
F 3 "" H 5100 7300 60  0001 C CNN
	1    5400 6150
	1    0    0    -1  
$EndComp
$Comp
L CONN_01X04 P12
U 1 1 58A47F9D
P 6650 6150
F 0 "P12" H 6650 6400 50  0000 C CNN
F 1 "CONN_01X04" V 6750 6150 50  0000 C CNN
F 2 "Pin_Headers:Pin_Header_Straight_1x04" H 6650 6150 50  0001 C CNN
F 3 "" H 6650 6150 50  0000 C CNN
	1    6650 6150
	1    0    0    1   
$EndComp
$Comp
L R R7
U 1 1 58A47FA3
P 4650 6500
F 0 "R7" V 4730 6500 50  0000 C CNN
F 1 "R" V 4650 6500 50  0000 C CNN
F 2 "Resistors_ThroughHole:Resistor_Horizontal_RM7mm" V 4580 6500 50  0001 C CNN
F 3 "" H 4650 6500 50  0000 C CNN
	1    4650 6500
	0    1    1    0   
$EndComp
$Comp
L R R6
U 1 1 58A47FA9
P 4650 6400
F 0 "R6" V 4550 6400 50  0000 C CNN
F 1 "R" V 4650 6400 50  0000 C CNN
F 2 "Resistors_ThroughHole:Resistor_Horizontal_RM7mm" V 4580 6400 50  0001 C CNN
F 3 "" H 4650 6400 50  0000 C CNN
	1    4650 6400
	0    1    1    0   
$EndComp
$Comp
L GND #PWR017
U 1 1 58A47FAF
P 6000 6900
F 0 "#PWR017" H 6000 6650 50  0001 C CNN
F 1 "GND" H 6000 6750 50  0000 C CNN
F 2 "" H 6000 6900 50  0000 C CNN
F 3 "" H 6000 6900 50  0000 C CNN
	1    6000 6900
	1    0    0    -1  
$EndComp
$Comp
L VCC #PWR018
U 1 1 58A47FB5
P 6250 5800
F 0 "#PWR018" H 6250 5650 50  0001 C CNN
F 1 "VCC" V 6250 6000 50  0000 C CNN
F 2 "" H 6250 5800 50  0000 C CNN
F 3 "" H 6250 5800 50  0000 C CNN
	1    6250 5800
	0    1    1    0   
$EndComp
$Comp
L VDD #PWR019
U 1 1 58A47FBB
P 6250 6400
F 0 "#PWR019" H 6250 6250 50  0001 C CNN
F 1 "VDD" V 6250 6600 50  0000 C CNN
F 2 "" H 6250 6400 50  0000 C CNN
F 3 "" H 6250 6400 50  0000 C CNN
	1    6250 6400
	0    1    1    0   
$EndComp
Text GLabel 4400 5900 0    60   Input ~ 0
M3_MS1
Text GLabel 4400 6000 0    60   Input ~ 0
M3_MS2
Text GLabel 4400 6100 0    60   Input ~ 0
M3_MS3
Text GLabel 4400 6400 0    60   Input ~ 0
M3_STEP
Text GLabel 4400 6500 0    60   Input ~ 0
M3_DIR
$Comp
L CP C3
U 1 1 58A47FD6
P 6150 6650
F 0 "C3" H 6175 6750 50  0000 L CNN
F 1 "CP" H 6175 6550 50  0000 L CNN
F 2 "Capacitors_ThroughHole:C_Radial_D8_L13_P3.8" H 6188 6500 50  0001 C CNN
F 3 "" H 6150 6650 50  0000 C CNN
	1    6150 6650
	1    0    0    -1  
$EndComp
Text GLabel 4400 5800 0    60   Input ~ 0
M3_EN
$Comp
L CONN_01X03 P10
U 1 1 58A4A215
P 1900 6700
F 0 "P10" H 1900 6900 50  0000 C CNN
F 1 "CONN_01X03" V 2000 6700 50  0000 C CNN
F 2 "Pin_Headers:Pin_Header_Straight_1x03" H 1900 6700 50  0001 C CNN
F 3 "" H 1900 6700 50  0000 C CNN
	1    1900 6700
	-1   0    0    1   
$EndComp
$Comp
L CONN_01X03 P11
U 1 1 58A4A21B
P 2650 6700
F 0 "P11" H 2650 6900 50  0000 C CNN
F 1 "CONN_01X03" V 2750 6700 50  0000 C CNN
F 2 "Pin_Headers:Pin_Header_Straight_1x03" H 2650 6700 50  0001 C CNN
F 3 "" H 2650 6700 50  0000 C CNN
	1    2650 6700
	-1   0    0    1   
$EndComp
Wire Wire Line
	4800 3200 4900 3200
Wire Wire Line
	4900 3100 4800 3100
Wire Wire Line
	6450 3000 5900 3000
Wire Wire Line
	5900 2900 6450 2900
Wire Wire Line
	6450 2800 5900 2800
Wire Wire Line
	5900 2700 6450 2700
Wire Wire Line
	5900 3100 6250 3100
Wire Wire Line
	5900 2500 6250 2500
Wire Wire Line
	4250 1050 4350 1050
Wire Wire Line
	4900 3000 4800 3000
Wire Wire Line
	4800 3000 4800 2900
Wire Wire Line
	4800 2900 4900 2900
Wire Wire Line
	4400 2800 4900 2800
Wire Wire Line
	4900 2700 4400 2700
Wire Wire Line
	4400 2600 4900 2600
Wire Wire Line
	4400 3100 4500 3100
Wire Wire Line
	4500 3200 4400 3200
Wire Wire Line
	2200 5400 2200 6800
Wire Wire Line
	2200 5500 2100 5500
Wire Wire Line
	2200 5600 2100 5600
Connection ~ 2200 5500
Wire Wire Line
	2200 5700 2100 5700
Connection ~ 2200 5600
Wire Wire Line
	2200 6050 2100 6050
Connection ~ 2200 5700
Wire Wire Line
	2200 6150 2100 6150
Connection ~ 2200 6050
Wire Wire Line
	2200 6250 2100 6250
Connection ~ 2200 6150
Wire Wire Line
	2950 5500 2850 5500
Wire Wire Line
	2850 5600 2950 5600
Wire Wire Line
	2950 5700 2850 5700
Wire Wire Line
	2850 6250 2950 6250
Wire Wire Line
	2950 6150 2850 6150
Wire Wire Line
	2850 6050 2950 6050
Wire Wire Line
	4650 1700 4750 1700
Wire Wire Line
	6150 1050 6050 1050
Wire Wire Line
	4250 1700 4350 1700
Wire Wire Line
	4750 1050 4650 1050
Wire Wire Line
	5650 1050 5550 1050
Wire Wire Line
	5900 3200 6000 3200
Wire Wire Line
	6000 2600 6000 3600
Wire Wire Line
	6000 2600 5900 2600
Connection ~ 6000 3200
Wire Wire Line
	6150 3500 6150 3550
Wire Wire Line
	6150 3550 6000 3550
Connection ~ 6000 3550
Wire Wire Line
	6150 3200 6150 2500
Connection ~ 6150 2500
Wire Wire Line
	6450 1050 6550 1050
Wire Wire Line
	6550 1050 6550 1150
Wire Wire Line
	4250 1150 4350 1150
Wire Wire Line
	4350 1150 4350 1250
Wire Wire Line
	4800 4850 4900 4850
Wire Wire Line
	4900 4750 4800 4750
Wire Wire Line
	6450 4650 5900 4650
Wire Wire Line
	5900 4550 6450 4550
Wire Wire Line
	6450 4450 5900 4450
Wire Wire Line
	5900 4350 6450 4350
Wire Wire Line
	5900 4750 6250 4750
Wire Wire Line
	5900 4150 6250 4150
Wire Wire Line
	4900 4650 4800 4650
Wire Wire Line
	4800 4650 4800 4550
Wire Wire Line
	4800 4550 4900 4550
Wire Wire Line
	4400 4450 4900 4450
Wire Wire Line
	4900 4350 4400 4350
Wire Wire Line
	4400 4250 4900 4250
Wire Wire Line
	4400 4750 4500 4750
Wire Wire Line
	4500 4850 4400 4850
Wire Wire Line
	5900 4850 6000 4850
Wire Wire Line
	6000 4250 6000 5250
Wire Wire Line
	6000 4250 5900 4250
Connection ~ 6000 4850
Wire Wire Line
	6150 5150 6150 5200
Wire Wire Line
	6150 5200 6000 5200
Connection ~ 6000 5200
Wire Wire Line
	6150 4850 6150 4150
Connection ~ 6150 4150
Wire Wire Line
	4800 6500 4900 6500
Wire Wire Line
	4900 6400 4800 6400
Wire Wire Line
	6450 6300 5900 6300
Wire Wire Line
	5900 6200 6450 6200
Wire Wire Line
	6450 6100 5900 6100
Wire Wire Line
	5900 6000 6450 6000
Wire Wire Line
	5900 6400 6250 6400
Wire Wire Line
	5900 5800 6250 5800
Wire Wire Line
	4900 6300 4800 6300
Wire Wire Line
	4800 6300 4800 6200
Wire Wire Line
	4800 6200 4900 6200
Wire Wire Line
	4400 6100 4900 6100
Wire Wire Line
	4900 6000 4400 6000
Wire Wire Line
	4400 5900 4900 5900
Wire Wire Line
	4400 6400 4500 6400
Wire Wire Line
	4500 6500 4400 6500
Wire Wire Line
	5900 6500 6000 6500
Wire Wire Line
	6000 5900 6000 6900
Wire Wire Line
	6000 5900 5900 5900
Connection ~ 6000 6500
Wire Wire Line
	6150 6800 6150 6850
Wire Wire Line
	6150 6850 6000 6850
Connection ~ 6000 6850
Wire Wire Line
	6150 6500 6150 5800
Connection ~ 6150 5800
Wire Wire Line
	2850 6800 2950 6800
Wire Wire Line
	2950 6700 2850 6700
Wire Wire Line
	2850 6600 2950 6600
Wire Wire Line
	2200 6600 2100 6600
Connection ~ 2200 6250
Wire Wire Line
	2200 6700 2100 6700
Connection ~ 2200 6600
Wire Wire Line
	2200 6800 2100 6800
Connection ~ 2200 6700
Text GLabel 2950 6600 2    60   Input ~ 0
M3_MS1
Text GLabel 2950 6700 2    60   Input ~ 0
M3_MS2
Text GLabel 2950 6800 2    60   Input ~ 0
M3_MS3
Text GLabel 2700 3700 2    60   Input ~ 0
MX_EN
Text GLabel 2700 3800 2    60   Input ~ 0
M3_STEP
Text GLabel 2700 3900 2    60   Input ~ 0
M3_DIR
$Comp
L CONN_01X15 P1
U 1 1 58A4CA35
P 1900 1950
F 0 "P1" H 1900 2750 50  0000 C CNN
F 1 "CONN_01X15" V 2000 1950 50  0000 C CNN
F 2 "Socket_Strips:Socket_Strip_Straight_1x15" H 1900 1950 50  0001 C CNN
F 3 "" H 1900 1950 50  0000 C CNN
	1    1900 1950
	-1   0    0    1   
$EndComp
$Comp
L CONN_01X15 P2
U 1 1 58A4CC20
P 1900 3750
F 0 "P2" H 1900 4550 50  0000 C CNN
F 1 "CONN_01X15" V 2000 3750 50  0000 C CNN
F 2 "Socket_Strips:Socket_Strip_Straight_1x15" H 1900 3750 50  0001 C CNN
F 3 "" H 1900 3750 50  0000 C CNN
	1    1900 3750
	-1   0    0    1   
$EndComp
Text GLabel 6250 1700 2    60   Input ~ 0
M3_EN
Text GLabel 6250 1800 2    60   Input ~ 0
M2_EN
Wire Wire Line
	4400 5800 4900 5800
Wire Wire Line
	4900 4150 4400 4150
Wire Wire Line
	4400 2500 4900 2500
Text GLabel 6250 1900 2    60   Input ~ 0
M1_EN
Wire Wire Line
	5750 1700 5650 1700
Wire Wire Line
	6050 1700 6250 1700
Wire Wire Line
	6150 1700 6150 1900
Wire Wire Line
	6050 1900 6250 1900
Connection ~ 6150 1900
Wire Wire Line
	6250 1800 6150 1800
Connection ~ 6150 1800
Connection ~ 6150 1700
Text GLabel 5650 1900 0    60   Input ~ 0
MX_EN
Wire Wire Line
	5750 1900 5650 1900
Wire Wire Line
	2100 1550 2200 1550
Wire Wire Line
	2100 1350 2250 1350
$Comp
L GND #PWR020
U 1 1 58A5B4C0
P 2400 3200
F 0 "#PWR020" H 2400 2950 50  0001 C CNN
F 1 "GND" H 2400 3050 50  0000 C CNN
F 2 "" H 2400 3200 50  0000 C CNN
F 3 "" H 2400 3200 50  0000 C CNN
	1    2400 3200
	1    0    0    -1  
$EndComp
Wire Wire Line
	2100 3350 2250 3350
Wire Wire Line
	2250 3350 2250 3150
Wire Wire Line
	2250 3150 2400 3150
Wire Wire Line
	2400 3150 2400 3200
$Comp
L GND #PWR021
U 1 1 589FB39D
P 2400 1200
F 0 "#PWR021" H 2400 950 50  0001 C CNN
F 1 "GND" H 2400 1050 50  0000 C CNN
F 2 "" H 2400 1200 50  0000 C CNN
F 3 "" H 2400 1200 50  0000 C CNN
	1    2400 1200
	1    0    0    -1  
$EndComp
Wire Wire Line
	2250 1350 2250 1150
Wire Wire Line
	2250 1150 2400 1150
Wire Wire Line
	2400 1150 2400 1200
Wire Wire Line
	2200 2550 2100 2550
$EndSCHEMATC
