EESchema Schematic File Version 2
LIBS:power
LIBS:device
LIBS:transistors
LIBS:conn
LIBS:linear
LIBS:regul
LIBS:74xx
LIBS:cmos4000
LIBS:adc-dac
LIBS:memory
LIBS:xilinx
LIBS:microcontrollers
LIBS:dsp
LIBS:microchip
LIBS:analog_switches
LIBS:motorola
LIBS:texas
LIBS:intel
LIBS:audio
LIBS:interface
LIBS:digital-audio
LIBS:philips
LIBS:display
LIBS:cypress
LIBS:siliconi
LIBS:opto
LIBS:atmel
LIBS:contrib
LIBS:valves
LIBS:motordrv
LIBS:cnc_motor_driver_shield-cache
EELAYER 25 0
EELAYER END
$Descr A4 11693 8268
encoding utf-8
Sheet 1 1
Title ""
Date ""
Rev ""
Comp ""
Comment1 ""
Comment2 ""
Comment3 ""
Comment4 ""
$EndDescr
Text GLabel 5450 2550 2    60   Input ~ 0
MT1_DIR
Text GLabel 5450 2450 2    60   Input ~ 0
MT1_STEP
$Comp
L +5V #PWR4
U 1 1 589EB112
P 5350 2150
F 0 "#PWR4" H 5350 2000 50  0001 C CNN
F 1 "+5V" V 5350 2350 50  0000 C CNN
F 2 "" H 5350 2150 50  0000 C CNN
F 3 "" H 5350 2150 50  0000 C CNN
	1    5350 2150
	0    1    1    0   
$EndComp
Text GLabel 5450 2350 2    60   Input ~ 0
MT1_EN
Text GLabel 4550 2350 0    60   Input ~ 0
IN1_1A
Text GLabel 4550 2450 0    60   Input ~ 0
IN1_1B
Text GLabel 4550 2150 0    60   Input ~ 0
IN1_2A
Text GLabel 4550 2250 0    60   Input ~ 0
IN1_2B
$Comp
L CONN_02X05 P1
U 1 1 58A7DCD2
P 5000 2350
F 0 "P1" H 5000 2650 50  0000 C CNN
F 1 "CONN_02X05" H 5000 2050 50  0000 C CNN
F 2 "Connect:IDC_Header_Straight_10pins" H 5000 1150 50  0001 C CNN
F 3 "" H 5000 1150 50  0000 C CNN
	1    5000 2350
	1    0    0    -1  
$EndComp
$Comp
L GND #PWR1
U 1 1 58A5B4C0
P 4650 2650
F 0 "#PWR1" H 4650 2400 50  0001 C CNN
F 1 "GND" H 4650 2500 50  0000 C CNN
F 2 "" H 4650 2650 50  0000 C CNN
F 3 "" H 4650 2650 50  0000 C CNN
	1    4650 2650
	1    0    0    -1  
$EndComp
Text GLabel 5450 3550 2    60   Input ~ 0
MT2_DIR
Text GLabel 5450 3450 2    60   Input ~ 0
MT2_STEP
$Comp
L +5V #PWR5
U 1 1 58A76032
P 5350 3150
F 0 "#PWR5" H 5350 3000 50  0001 C CNN
F 1 "+5V" V 5350 3350 50  0000 C CNN
F 2 "" H 5350 3150 50  0000 C CNN
F 3 "" H 5350 3150 50  0000 C CNN
	1    5350 3150
	0    1    1    0   
$EndComp
Text GLabel 5450 3350 2    60   Input ~ 0
MT2_EN
Text GLabel 4550 3350 0    60   Input ~ 0
IN2_1A
Text GLabel 4550 3450 0    60   Input ~ 0
IN2_1B
Text GLabel 4550 3150 0    60   Input ~ 0
IN2_2A
Text GLabel 4550 3250 0    60   Input ~ 0
IN2_2B
$Comp
L CONN_02X05 P2
U 1 1 58A76045
P 5000 3350
F 0 "P2" H 5000 3650 50  0000 C CNN
F 1 "CONN_02X05" H 5000 3050 50  0000 C CNN
F 2 "Connect:IDC_Header_Straight_10pins" H 5000 2150 50  0001 C CNN
F 3 "" H 5000 2150 50  0000 C CNN
	1    5000 3350
	1    0    0    -1  
$EndComp
$Comp
L GND #PWR2
U 1 1 58A7604B
P 4650 3650
F 0 "#PWR2" H 4650 3400 50  0001 C CNN
F 1 "GND" H 4650 3500 50  0000 C CNN
F 2 "" H 4650 3650 50  0000 C CNN
F 3 "" H 4650 3650 50  0000 C CNN
	1    4650 3650
	1    0    0    -1  
$EndComp
Text GLabel 7550 4650 2    60   Input ~ 0
IN1_1A
Text GLabel 7550 4550 2    60   Input ~ 0
IN1_1B
Text GLabel 7550 3250 2    60   Input ~ 0
IN2_1A
Text GLabel 7550 3150 2    60   Input ~ 0
IN2_1B
Text GLabel 7550 4450 2    60   Input ~ 0
MT1_DIR
Text GLabel 7550 4350 2    60   Input ~ 0
MT1_STEP
Text GLabel 7550 4250 2    60   Input ~ 0
MT1_EN
Text GLabel 7550 5250 2    60   Input ~ 0
MT2_DIR
Text GLabel 7550 5150 2    60   Input ~ 0
MT2_STEP
$Comp
L R R8
U 1 1 58A76AAF
P 7300 4250
F 0 "R8" V 7350 4100 50  0000 C CNN
F 1 "R" V 7300 4250 50  0000 C CNN
F 2 "Resistors_ThroughHole:Resistor_Horizontal_RM10mm" V 7230 4250 50  0001 C CNN
F 3 "" H 7300 4250 50  0000 C CNN
	1    7300 4250
	0    1    -1   0   
$EndComp
$Comp
L R R9
U 1 1 58A76BA2
P 7300 4350
F 0 "R9" V 7350 4200 50  0000 C CNN
F 1 "R" V 7300 4350 50  0000 C CNN
F 2 "Resistors_ThroughHole:Resistor_Horizontal_RM10mm" V 7230 4350 50  0001 C CNN
F 3 "" H 7300 4350 50  0000 C CNN
	1    7300 4350
	0    1    -1   0   
$EndComp
$Comp
L R R10
U 1 1 58A76BBE
P 7300 4450
F 0 "R10" V 7350 4300 50  0000 C CNN
F 1 "R" V 7300 4450 50  0000 C CNN
F 2 "Resistors_ThroughHole:Resistor_Horizontal_RM10mm" V 7230 4450 50  0001 C CNN
F 3 "" H 7300 4450 50  0000 C CNN
	1    7300 4450
	0    1    -1   0   
$EndComp
$Comp
L R R11
U 1 1 58A76C15
P 7300 4550
F 0 "R11" V 7350 4400 50  0000 C CNN
F 1 "R" V 7300 4550 50  0000 C CNN
F 2 "Resistors_ThroughHole:Resistor_Horizontal_RM10mm" V 7230 4550 50  0001 C CNN
F 3 "" H 7300 4550 50  0000 C CNN
	1    7300 4550
	0    1    -1   0   
$EndComp
$Comp
L R R12
U 1 1 58A76C41
P 7300 4650
F 0 "R12" V 7350 4500 50  0000 C CNN
F 1 "R" V 7300 4650 50  0000 C CNN
F 2 "Resistors_ThroughHole:Resistor_Horizontal_RM10mm" V 7230 4650 50  0001 C CNN
F 3 "" H 7300 4650 50  0000 C CNN
	1    7300 4650
	0    1    -1   0   
$EndComp
$Comp
L R R13
U 1 1 58A76F7C
P 7300 5050
F 0 "R13" V 7350 4900 50  0000 C CNN
F 1 "R" V 7300 5050 50  0000 C CNN
F 2 "Resistors_ThroughHole:Resistor_Horizontal_RM10mm" V 7230 5050 50  0001 C CNN
F 3 "" H 7300 5050 50  0000 C CNN
	1    7300 5050
	0    1    -1   0   
$EndComp
$Comp
L R R14
U 1 1 58A76F82
P 7300 5150
F 0 "R14" V 7350 5000 50  0000 C CNN
F 1 "R" V 7300 5150 50  0000 C CNN
F 2 "Resistors_ThroughHole:Resistor_Horizontal_RM10mm" V 7230 5150 50  0001 C CNN
F 3 "" H 7300 5150 50  0000 C CNN
	1    7300 5150
	0    1    -1   0   
$EndComp
$Comp
L R R15
U 1 1 58A76F88
P 7300 5250
F 0 "R15" V 7350 5100 50  0000 C CNN
F 1 "R" V 7300 5250 50  0000 C CNN
F 2 "Resistors_ThroughHole:Resistor_Horizontal_RM10mm" V 7230 5250 50  0001 C CNN
F 3 "" H 7300 5250 50  0000 C CNN
	1    7300 5250
	0    1    -1   0   
$EndComp
$Comp
L R R6
U 1 1 58A76F8E
P 7300 3150
F 0 "R6" V 7350 3000 50  0000 C CNN
F 1 "R" V 7300 3150 50  0000 C CNN
F 2 "Resistors_ThroughHole:Resistor_Horizontal_RM10mm" V 7230 3150 50  0001 C CNN
F 3 "" H 7300 3150 50  0000 C CNN
	1    7300 3150
	0    1    -1   0   
$EndComp
$Comp
L CONN_01X15 P4
U 1 1 58A75427
P 6750 2850
F 0 "P4" H 6750 3650 50  0000 C CNN
F 1 "CONN_01X15" V 6850 2850 50  0000 C CNN
F 2 "Socket_Strips:Socket_Strip_Straight_1x15" H 6750 2850 50  0001 C CNN
F 3 "" H 6750 2850 50  0000 C CNN
	1    6750 2850
	-1   0    0    -1  
$EndComp
$Comp
L CONN_01X15 P5
U 1 1 58A754A4
P 6750 4550
F 0 "P5" H 6750 5350 50  0000 C CNN
F 1 "CONN_01X15" V 6850 4550 50  0000 C CNN
F 2 "Socket_Strips:Socket_Strip_Straight_1x15" H 6750 4550 50  0001 C CNN
F 3 "" H 6750 4550 50  0000 C CNN
	1    6750 4550
	-1   0    0    -1  
$EndComp
Text GLabel 5450 4550 2    60   Input ~ 0
MT3_DIR
Text GLabel 5450 4450 2    60   Input ~ 0
MT3_STEP
$Comp
L +5V #PWR6
U 1 1 58A773EB
P 5350 4150
F 0 "#PWR6" H 5350 4000 50  0001 C CNN
F 1 "+5V" V 5350 4350 50  0000 C CNN
F 2 "" H 5350 4150 50  0000 C CNN
F 3 "" H 5350 4150 50  0000 C CNN
	1    5350 4150
	0    1    1    0   
$EndComp
Text GLabel 5450 4350 2    60   Input ~ 0
MT3_EN
Text GLabel 4550 4350 0    60   Input ~ 0
IN3_1A
Text GLabel 4550 4450 0    60   Input ~ 0
IN3_1B
Text GLabel 4550 4150 0    60   Input ~ 0
IN3_2A
Text GLabel 4550 4250 0    60   Input ~ 0
IN3_2B
$Comp
L CONN_02X05 P3
U 1 1 58A773FE
P 5000 4350
F 0 "P3" H 5000 4650 50  0000 C CNN
F 1 "CONN_02X05" H 5000 4050 50  0000 C CNN
F 2 "Connect:IDC_Header_Straight_10pins" H 5000 3150 50  0001 C CNN
F 3 "" H 5000 3150 50  0000 C CNN
	1    5000 4350
	1    0    0    -1  
$EndComp
$Comp
L GND #PWR3
U 1 1 58A77404
P 4650 4650
F 0 "#PWR3" H 4650 4400 50  0001 C CNN
F 1 "GND" H 4650 4500 50  0000 C CNN
F 2 "" H 4650 4650 50  0000 C CNN
F 3 "" H 4650 4650 50  0000 C CNN
	1    4650 4650
	1    0    0    -1  
$EndComp
$Comp
L R R4
U 1 1 58A77CE1
P 7300 2950
F 0 "R4" V 7350 2800 50  0000 C CNN
F 1 "R" V 7300 2950 50  0000 C CNN
F 2 "Resistors_ThroughHole:Resistor_Horizontal_RM10mm" V 7230 2950 50  0001 C CNN
F 3 "" H 7300 2950 50  0000 C CNN
	1    7300 2950
	0    1    -1   0   
$EndComp
$Comp
L R R3
U 1 1 58A77CE7
P 7300 2850
F 0 "R3" V 7350 2700 50  0000 C CNN
F 1 "R" V 7300 2850 50  0000 C CNN
F 2 "Resistors_ThroughHole:Resistor_Horizontal_RM10mm" V 7230 2850 50  0001 C CNN
F 3 "" H 7300 2850 50  0000 C CNN
	1    7300 2850
	0    1    -1   0   
$EndComp
Text GLabel 7550 2850 2    60   Input ~ 0
MT3_DIR
Text GLabel 7550 2950 2    60   Input ~ 0
MT3_STEP
Text GLabel 7550 2650 2    60   Input ~ 0
IN3_1A
Text GLabel 7550 2750 2    60   Input ~ 0
IN3_1B
$Comp
L R R1
U 1 1 58A780CA
P 7300 2650
F 0 "R1" V 7350 2500 50  0000 C CNN
F 1 "R" V 7300 2650 50  0000 C CNN
F 2 "Resistors_ThroughHole:Resistor_Horizontal_RM10mm" V 7230 2650 50  0001 C CNN
F 3 "" H 7300 2650 50  0000 C CNN
	1    7300 2650
	0    1    -1   0   
$EndComp
$Comp
L R R2
U 1 1 58A780D0
P 7300 2750
F 0 "R2" V 7350 2600 50  0000 C CNN
F 1 "R" V 7300 2750 50  0000 C CNN
F 2 "Resistors_ThroughHole:Resistor_Horizontal_RM10mm" V 7230 2750 50  0001 C CNN
F 3 "" H 7300 2750 50  0000 C CNN
	1    7300 2750
	0    1    -1   0   
$EndComp
$Comp
L GND #PWR9
U 1 1 58A78902
P 7350 3950
F 0 "#PWR9" H 7350 3700 50  0001 C CNN
F 1 "GND" H 7350 3800 50  0000 C CNN
F 2 "" H 7350 3950 50  0000 C CNN
F 3 "" H 7350 3950 50  0000 C CNN
	1    7350 3950
	1    0    0    -1  
$EndComp
$Comp
L +5V #PWR7
U 1 1 58A78949
P 7150 2450
F 0 "#PWR7" H 7150 2300 50  0001 C CNN
F 1 "+5V" V 7150 2650 50  0000 C CNN
F 2 "" H 7150 2450 50  0000 C CNN
F 3 "" H 7150 2450 50  0000 C CNN
	1    7150 2450
	0    1    1    0   
$EndComp
$Comp
L GND #PWR8
U 1 1 58A7AC17
P 7350 2150
F 0 "#PWR8" H 7350 1900 50  0001 C CNN
F 1 "GND" H 7350 2000 50  0000 C CNN
F 2 "" H 7350 2150 50  0000 C CNN
F 3 "" H 7350 2150 50  0000 C CNN
	1    7350 2150
	1    0    0    -1  
$EndComp
Wire Wire Line
	7550 4350 7450 4350
Wire Wire Line
	7450 4450 7550 4450
Wire Wire Line
	7550 4250 7450 4250
Wire Wire Line
	5450 2350 5250 2350
Wire Wire Line
	5250 2450 5450 2450
Wire Wire Line
	5450 2550 5250 2550
Wire Wire Line
	5250 2150 5350 2150
Wire Wire Line
	7550 4550 7450 4550
Wire Wire Line
	7450 4650 7550 4650
Wire Wire Line
	4650 2650 4650 2550
Wire Wire Line
	4650 2550 4750 2550
Wire Wire Line
	5250 3450 5450 3450
Wire Wire Line
	5450 3550 5250 3550
Wire Wire Line
	5250 3150 5350 3150
Wire Wire Line
	4550 3150 4750 3150
Wire Wire Line
	4750 3250 4550 3250
Wire Wire Line
	4550 3350 4750 3350
Wire Wire Line
	4750 3450 4550 3450
Wire Wire Line
	4650 3650 4650 3550
Wire Wire Line
	4650 3550 4750 3550
Wire Wire Line
	7550 5050 7450 5050
Wire Wire Line
	7450 5150 7550 5150
Wire Wire Line
	7550 5250 7450 5250
Wire Wire Line
	7450 3150 7550 3150
Wire Wire Line
	5250 4450 5450 4450
Wire Wire Line
	5450 4550 5250 4550
Wire Wire Line
	5250 4150 5350 4150
Wire Wire Line
	4550 4150 4750 4150
Wire Wire Line
	4750 4250 4550 4250
Wire Wire Line
	4550 4350 4750 4350
Wire Wire Line
	4750 4450 4550 4450
Wire Wire Line
	4650 4650 4650 4550
Wire Wire Line
	4650 4550 4750 4550
Wire Wire Line
	7550 2950 7450 2950
Wire Wire Line
	7450 2850 7550 2850
Wire Wire Line
	7450 2650 7550 2650
Wire Wire Line
	7550 2750 7450 2750
Wire Wire Line
	6950 2450 7150 2450
Wire Wire Line
	6950 2750 7150 2750
Wire Wire Line
	7150 2650 6950 2650
Wire Wire Line
	6950 3150 7150 3150
Wire Wire Line
	7150 5250 6950 5250
Wire Wire Line
	6950 4650 7150 4650
Wire Wire Line
	7150 4550 6950 4550
Wire Wire Line
	6950 2850 7150 2850
Wire Wire Line
	7150 2950 6950 2950
Wire Wire Line
	7150 5150 6950 5150
Wire Wire Line
	6950 4250 7150 4250
Wire Wire Line
	7150 4350 6950 4350
Wire Wire Line
	6950 4450 7150 4450
Wire Wire Line
	6950 5050 7150 5050
Wire Wire Line
	6950 2250 7150 2250
Wire Wire Line
	7150 2250 7150 2050
Wire Wire Line
	7150 2050 7350 2050
Wire Wire Line
	7350 2050 7350 2150
Wire Wire Line
	6950 4150 7150 4150
Wire Wire Line
	7150 4150 7150 3850
Wire Wire Line
	7150 3850 7350 3850
Wire Wire Line
	7350 3850 7350 3950
Wire Wire Line
	5450 4350 5250 4350
Wire Wire Line
	5450 3350 5250 3350
Wire Wire Line
	4550 2450 4750 2450
Wire Wire Line
	4750 2350 4550 2350
Wire Wire Line
	4550 2250 4750 2250
Wire Wire Line
	4750 2150 4550 2150
Text GLabel 7550 3050 2    60   Input ~ 0
MT3_EN
$Comp
L R R5
U 1 1 58A81D16
P 7300 3050
F 0 "R5" V 7350 2900 50  0000 C CNN
F 1 "R" V 7300 3050 50  0000 C CNN
F 2 "Resistors_ThroughHole:Resistor_Horizontal_RM10mm" V 7230 3050 50  0001 C CNN
F 3 "" H 7300 3050 50  0000 C CNN
	1    7300 3050
	0    1    -1   0   
$EndComp
Wire Wire Line
	7450 3050 7550 3050
Wire Wire Line
	7150 3050 6950 3050
Text GLabel 7550 5050 2    60   Input ~ 0
MT2_EN
$Comp
L R R7
U 1 1 58A82F5B
P 7300 3250
F 0 "R7" V 7350 3100 50  0000 C CNN
F 1 "R" V 7300 3250 50  0000 C CNN
F 2 "Resistors_ThroughHole:Resistor_Horizontal_RM10mm" V 7230 3250 50  0001 C CNN
F 3 "" H 7300 3250 50  0000 C CNN
	1    7300 3250
	0    1    -1   0   
$EndComp
Wire Wire Line
	6950 3250 7150 3250
Wire Wire Line
	7450 3250 7550 3250
$EndSCHEMATC
