EESchema Schematic File Version 2
LIBS:power
LIBS:device
LIBS:transistors
LIBS:conn
LIBS:linear
LIBS:regul
LIBS:74xx
LIBS:cmos4000
LIBS:adc-dac
LIBS:memory
LIBS:xilinx
LIBS:microcontrollers
LIBS:dsp
LIBS:microchip
LIBS:analog_switches
LIBS:motorola
LIBS:texas
LIBS:intel
LIBS:audio
LIBS:interface
LIBS:digital-audio
LIBS:philips
LIBS:display
LIBS:cypress
LIBS:siliconi
LIBS:opto
LIBS:atmel
LIBS:contrib
LIBS:valves
LIBS:motordrv
LIBS:cnc_shield-cache
EELAYER 25 0
EELAYER END
$Descr A4 11693 8268
encoding utf-8
Sheet 1 1
Title ""
Date ""
Rev ""
Comp ""
Comment1 ""
Comment2 ""
Comment3 ""
Comment4 ""
$EndDescr
$Comp
L CONN_01X06 P2
U 1 1 5893D82A
P 1850 3200
F 0 "P2" H 1850 3550 50  0000 C CNN
F 1 "CONN_01X06" V 1950 3200 50  0000 C CNN
F 2 "Pin_Headers:Pin_Header_Straight_1x06" H 1850 3200 50  0001 C CNN
F 3 "" H 1850 3200 50  0000 C CNN
	1    1850 3200
	-1   0    0    1   
$EndComp
$Comp
L CONN_01X08 P3
U 1 1 5893D8AC
P 1850 4100
F 0 "P3" H 1850 4550 50  0000 C CNN
F 1 "CONN_01X08" V 1950 4100 50  0000 C CNN
F 2 "Pin_Headers:Pin_Header_Straight_1x08" H 1850 4100 50  0001 C CNN
F 3 "" H 1850 4100 50  0000 C CNN
	1    1850 4100
	-1   0    0    1   
$EndComp
$Comp
L GND #PWR01
U 1 1 5893D93D
P 2400 2550
F 0 "#PWR01" H 2400 2300 50  0001 C CNN
F 1 "GND" H 2400 2400 50  0000 C CNN
F 2 "" H 2400 2550 50  0000 C CNN
F 3 "" H 2400 2550 50  0000 C CNN
	1    2400 2550
	-1   0    0    -1  
$EndComp
$Comp
L CONN_01X02 P4
U 1 1 5893F7F9
P 3400 2000
F 0 "P4" H 3400 2150 50  0000 C CNN
F 1 "CONN_01X02" V 3500 2000 50  0000 C CNN
F 2 "Terminal_Blocks:TerminalBlock_Pheonix_MKDS1.5-2pol" H 3400 2000 50  0001 C CNN
F 3 "" H 3400 2000 50  0000 C CNN
	1    3400 2000
	-1   0    0    1   
$EndComp
$Comp
L CONN_01X04 P8
U 1 1 5893F896
P 5600 3700
F 0 "P8" H 5600 3950 50  0000 C CNN
F 1 "CONN_01X04" V 5700 3700 50  0000 C CNN
F 2 "Pin_Headers:Pin_Header_Straight_1x04" H 5600 3700 50  0001 C CNN
F 3 "" H 5600 3700 50  0000 C CNN
	1    5600 3700
	1    0    0    -1  
$EndComp
$Comp
L D D1
U 1 1 5894106E
P 3850 1950
F 0 "D1" H 3850 2050 50  0000 C CNN
F 1 "D" H 3850 1850 50  0000 C CNN
F 2 "Diodes_ThroughHole:Diode_DO-35_SOD27_Horizontal_RM10" H 3850 1950 50  0001 C CNN
F 3 "" H 3850 1950 50  0000 C CNN
	1    3850 1950
	-1   0    0    -1  
$EndComp
$Comp
L LED D2
U 1 1 58941267
P 3900 2600
F 0 "D2" H 3900 2700 50  0000 C CNN
F 1 "LED" H 3900 2500 50  0000 C CNN
F 2 "LEDs:LED-5MM" H 3900 2600 50  0001 C CNN
F 3 "" H 3900 2600 50  0000 C CNN
	1    3900 2600
	-1   0    0    -1  
$EndComp
$Comp
L GND #PWR02
U 1 1 58943C4E
P 5200 4450
F 0 "#PWR02" H 5200 4200 50  0001 C CNN
F 1 "GND" H 5200 4300 50  0000 C CNN
F 2 "" H 5200 4450 50  0000 C CNN
F 3 "" H 5200 4450 50  0000 C CNN
	1    5200 4450
	1    0    0    -1  
$EndComp
$Comp
L CONN_01X08 P1
U 1 1 5893D861
P 1850 2300
F 0 "P1" H 1850 2750 50  0000 C CNN
F 1 "CONN_01X08" V 1950 2300 50  0000 C CNN
F 2 "Pin_Headers:Pin_Header_Straight_1x08" H 1850 2300 50  0001 C CNN
F 3 "" H 1850 2300 50  0000 C CNN
	1    1850 2300
	-1   0    0    1   
$EndComp
Text GLabel 2150 4250 2    60   Input ~ 0
M1_STEP
Text GLabel 2150 3950 2    60   Input ~ 0
M1_DIR
Text GLabel 2150 4150 2    60   Input ~ 0
M2_STEP
Text GLabel 3600 3950 0    60   Input ~ 0
M1_STEP
Text GLabel 3600 4050 0    60   Input ~ 0
M1_DIR
$Comp
L R R1
U 1 1 5894D7FC
P 4350 2600
F 0 "R1" V 4430 2600 50  0000 C CNN
F 1 "R" V 4350 2600 50  0000 C CNN
F 2 "Resistors_ThroughHole:Resistor_Horizontal_RM7mm" V 4280 2600 50  0001 C CNN
F 3 "" H 4350 2600 50  0000 C CNN
	1    4350 2600
	0    1    1    0   
$EndComp
$Comp
L CP C1
U 1 1 5894F00C
P 5350 4200
F 0 "C1" H 5375 4300 50  0000 L CNN
F 1 "CP" H 5375 4100 50  0000 L CNN
F 2 "Capacitors_ThroughHole:C_Radial_D8_L11.5_P3.5" H 5388 4050 50  0001 C CNN
F 3 "" H 5350 4200 50  0000 C CNN
	1    5350 4200
	1    0    0    -1  
$EndComp
$Comp
L GND #PWR03
U 1 1 58950510
P 2900 5400
F 0 "#PWR03" H 2900 5150 50  0001 C CNN
F 1 "GND" H 2900 5250 50  0000 C CNN
F 2 "" H 2900 5400 50  0000 C CNN
F 3 "" H 2900 5400 50  0000 C CNN
	1    2900 5400
	1    0    0    -1  
$EndComp
$Comp
L +3.3V #PWR04
U 1 1 58950552
P 2150 4900
F 0 "#PWR04" H 2150 4750 50  0001 C CNN
F 1 "+3.3V" H 2150 5040 50  0000 C CNN
F 2 "" H 2150 4900 50  0000 C CNN
F 3 "" H 2150 4900 50  0000 C CNN
	1    2150 4900
	1    0    0    -1  
$EndComp
Text GLabel 3650 5200 2    60   Input ~ 0
LM1_B
Text GLabel 3650 5300 2    60   Input ~ 0
LM1_A
Text GLabel 3650 5000 2    60   Input ~ 0
LM2_B
Text GLabel 2150 3450 2    60   Input ~ 0
LM1_A
Text GLabel 2150 3350 2    60   Input ~ 0
LM1_B
Text GLabel 2150 3250 2    60   Input ~ 0
LM2_A
Text GLabel 2150 3150 2    60   Input ~ 0
LM2_B
$Comp
L A4988 U1
U 1 1 58981CC2
P 4600 3700
F 0 "U1" H 4600 3200 60  0000 C CNN
F 1 "A4988" H 4600 4200 60  0000 C CNN
F 2 "motordrv:A4988" H 4300 4850 60  0001 C CNN
F 3 "" H 4300 4850 60  0001 C CNN
	1    4600 3700
	1    0    0    -1  
$EndComp
Text GLabel 5450 2600 0    60   Input ~ 0
MX_EN
$Comp
L VCC #PWR05
U 1 1 589844E4
P 5750 3350
F 0 "#PWR05" H 5750 3200 50  0001 C CNN
F 1 "VCC" V 5750 3550 50  0000 C CNN
F 2 "" H 5750 3350 50  0000 C CNN
F 3 "" H 5750 3350 50  0000 C CNN
	1    5750 3350
	0    1    1    0   
$EndComp
$Comp
L VDD #PWR06
U 1 1 58984560
P 5750 3950
F 0 "#PWR06" H 5750 3800 50  0001 C CNN
F 1 "VDD" V 5750 4150 50  0000 C CNN
F 2 "" H 5750 3950 50  0000 C CNN
F 3 "" H 5750 3950 50  0000 C CNN
	1    5750 3950
	0    1    1    0   
$EndComp
$Comp
L VCC #PWR07
U 1 1 58985F98
P 4100 1950
F 0 "#PWR07" H 4100 1800 50  0001 C CNN
F 1 "VCC" V 4100 2150 50  0000 C CNN
F 2 "" H 4100 1950 50  0000 C CNN
F 3 "" H 4100 1950 50  0000 C CNN
	1    4100 1950
	0    1    1    0   
$EndComp
$Comp
L VCC #PWR08
U 1 1 589860CA
P 3600 2600
F 0 "#PWR08" H 3600 2450 50  0001 C CNN
F 1 "VCC" V 3600 2800 50  0000 C CNN
F 2 "" H 3600 2600 50  0000 C CNN
F 3 "" H 3600 2600 50  0000 C CNN
	1    3600 2600
	0    -1   -1   0   
$EndComp
$Comp
L R R5
U 1 1 58987AE7
P 3850 4050
F 0 "R5" V 3930 4050 50  0000 C CNN
F 1 "R" V 3850 4050 50  0000 C CNN
F 2 "Resistors_ThroughHole:Resistor_Horizontal_RM7mm" V 3780 4050 50  0001 C CNN
F 3 "" H 3850 4050 50  0000 C CNN
	1    3850 4050
	0    1    1    0   
$EndComp
$Comp
L R R4
U 1 1 58987BF0
P 3850 3950
F 0 "R4" V 3750 3950 50  0000 C CNN
F 1 "R" V 3850 3950 50  0000 C CNN
F 2 "Resistors_ThroughHole:Resistor_Horizontal_RM7mm" V 3780 3950 50  0001 C CNN
F 3 "" H 3850 3950 50  0000 C CNN
	1    3850 3950
	0    1    1    0   
$EndComp
$Comp
L VDD #PWR09
U 1 1 58988B93
P 6000 1950
F 0 "#PWR09" H 6000 1800 50  0001 C CNN
F 1 "VDD" V 6000 2150 50  0000 C CNN
F 2 "" H 6000 1950 50  0000 C CNN
F 3 "" H 6000 1950 50  0000 C CNN
	1    6000 1950
	0    1    1    0   
$EndComp
$Comp
L D D3
U 1 1 58988D3C
P 5750 1950
F 0 "D3" H 5750 2050 50  0000 C CNN
F 1 "D" H 5750 1850 50  0000 C CNN
F 2 "Diodes_ThroughHole:Diode_DO-35_SOD27_Horizontal_RM10" H 5750 1950 50  0001 C CNN
F 3 "" H 5750 1950 50  0000 C CNN
	1    5750 1950
	-1   0    0    1   
$EndComp
$Comp
L CONN_01X04 P9
U 1 1 5898A92D
P 8750 3700
F 0 "P9" H 8750 3950 50  0000 C CNN
F 1 "CONN_01X04" V 8850 3700 50  0000 C CNN
F 2 "Pin_Headers:Pin_Header_Straight_1x04" H 8750 3700 50  0001 C CNN
F 3 "" H 8750 3700 50  0000 C CNN
	1    8750 3700
	1    0    0    -1  
$EndComp
$Comp
L GND #PWR010
U 1 1 5898A933
P 8350 4450
F 0 "#PWR010" H 8350 4200 50  0001 C CNN
F 1 "GND" H 8350 4300 50  0000 C CNN
F 2 "" H 8350 4450 50  0000 C CNN
F 3 "" H 8350 4450 50  0000 C CNN
	1    8350 4450
	1    0    0    -1  
$EndComp
Text GLabel 6750 3950 0    60   Input ~ 0
M2_STEP
Text GLabel 6750 4050 0    60   Input ~ 0
M2_DIR
$Comp
L CP C2
U 1 1 5898A93B
P 8500 4200
F 0 "C2" H 8525 4300 50  0000 L CNN
F 1 "CP" H 8525 4100 50  0000 L CNN
F 2 "Capacitors_ThroughHole:C_Radial_D8_L11.5_P3.5" H 8538 4050 50  0001 C CNN
F 3 "" H 8500 4200 50  0000 C CNN
	1    8500 4200
	1    0    0    -1  
$EndComp
$Comp
L A4988 U2
U 1 1 5898A941
P 7750 3700
F 0 "U2" H 7750 3200 60  0000 C CNN
F 1 "A4988" H 7750 4200 60  0000 C CNN
F 2 "motordrv:A4988" H 7450 4850 60  0001 C CNN
F 3 "" H 7450 4850 60  0001 C CNN
	1    7750 3700
	1    0    0    -1  
$EndComp
$Comp
L VCC #PWR011
U 1 1 5898A948
P 8900 3350
F 0 "#PWR011" H 8900 3200 50  0001 C CNN
F 1 "VCC" V 8900 3550 50  0000 C CNN
F 2 "" H 8900 3350 50  0000 C CNN
F 3 "" H 8900 3350 50  0000 C CNN
	1    8900 3350
	0    1    1    0   
$EndComp
$Comp
L VDD #PWR012
U 1 1 5898A94E
P 8900 3950
F 0 "#PWR012" H 8900 3800 50  0001 C CNN
F 1 "VDD" V 8900 4150 50  0000 C CNN
F 2 "" H 8900 3950 50  0000 C CNN
F 3 "" H 8900 3950 50  0000 C CNN
	1    8900 3950
	0    1    1    0   
$EndComp
$Comp
L R R9
U 1 1 5898A954
P 7000 4050
F 0 "R9" V 7080 4050 50  0000 C CNN
F 1 "R" V 7000 4050 50  0000 C CNN
F 2 "Resistors_ThroughHole:Resistor_Horizontal_RM10mm" V 6930 4050 50  0001 C CNN
F 3 "" H 7000 4050 50  0000 C CNN
	1    7000 4050
	0    1    1    0   
$EndComp
$Comp
L R R8
U 1 1 5898A95A
P 7000 3950
F 0 "R8" V 6900 3950 50  0000 C CNN
F 1 "R" V 7000 3950 50  0000 C CNN
F 2 "Resistors_ThroughHole:Resistor_Horizontal_RM10mm" V 6930 3950 50  0001 C CNN
F 3 "" H 7000 3950 50  0000 C CNN
	1    7000 3950
	0    1    1    0   
$EndComp
$Comp
L GND #PWR013
U 1 1 58950CF3
P 4600 2700
F 0 "#PWR013" H 4600 2450 50  0001 C CNN
F 1 "GND" H 4600 2550 50  0000 C CNN
F 2 "" H 4600 2700 50  0000 C CNN
F 3 "" H 4600 2700 50  0000 C CNN
	1    4600 2700
	1    0    0    -1  
$EndComp
$Comp
L GND #PWR014
U 1 1 5895070E
P 4100 2100
F 0 "#PWR014" H 4100 1850 50  0001 C CNN
F 1 "GND" H 4100 1950 50  0000 C CNN
F 2 "" H 4100 2100 50  0000 C CNN
F 3 "" H 4100 2100 50  0000 C CNN
	1    4100 2100
	1    0    0    -1  
$EndComp
$Comp
L +3.3V #PWR015
U 1 1 5899017E
P 2200 2150
F 0 "#PWR015" H 2200 2000 50  0001 C CNN
F 1 "+3.3V" H 2200 2290 50  0000 C CNN
F 2 "" H 2200 2150 50  0000 C CNN
F 3 "" H 2200 2150 50  0000 C CNN
	1    2200 2150
	1    0    0    -1  
$EndComp
$Comp
L +5V #PWR016
U 1 1 589901C0
P 2400 2150
F 0 "#PWR016" H 2400 2000 50  0001 C CNN
F 1 "+5V" H 2400 2290 50  0000 C CNN
F 2 "" H 2400 2150 50  0000 C CNN
F 3 "" H 2400 2150 50  0000 C CNN
	1    2400 2150
	1    0    0    -1  
$EndComp
$Comp
L VDD #PWR017
U 1 1 5898BBE0
P 5450 2500
F 0 "#PWR017" H 5450 2350 50  0001 C CNN
F 1 "VDD" V 5450 2700 50  0000 C CNN
F 2 "" H 5450 2500 50  0000 C CNN
F 3 "" H 5450 2500 50  0000 C CNN
	1    5450 2500
	0    -1   -1   0   
$EndComp
Text GLabel 3650 5100 2    60   Input ~ 0
LM2_A
$Comp
L CONN_01X04 P5
U 1 1 58990BE1
P 1850 5150
F 0 "P5" H 1850 5400 50  0000 C CNN
F 1 "CONN_01X04" V 1950 5150 50  0000 C CNN
F 2 "Pin_Headers:Pin_Header_Straight_1x04" H 1850 5150 50  0001 C CNN
F 3 "" H 1850 5150 50  0000 C CNN
	1    1850 5150
	-1   0    0    1   
$EndComp
$Comp
L CONN_01X04 P7
U 1 1 58990D78
P 3350 5150
F 0 "P7" H 3350 5400 50  0000 C CNN
F 1 "CONN_01X04" V 3450 5150 50  0000 C CNN
F 2 "Pin_Headers:Pin_Header_Straight_1x04" H 3350 5150 50  0001 C CNN
F 3 "" H 3350 5150 50  0000 C CNN
	1    3350 5150
	-1   0    0    1   
$EndComp
$Comp
L CONN_01X04 P6
U 1 1 58990E16
P 2600 5150
F 0 "P6" H 2600 5400 50  0000 C CNN
F 1 "CONN_01X04" V 2700 5150 50  0000 C CNN
F 2 "Pin_Headers:Pin_Header_Straight_1x04" H 2600 5150 50  0001 C CNN
F 3 "" H 2600 5150 50  0000 C CNN
	1    2600 5150
	-1   0    0    1   
$EndComp
Text GLabel 2150 3050 2    60   Input ~ 0
MX_EN
$Comp
L R R3
U 1 1 5898C1B9
P 5700 2600
F 0 "R3" V 5780 2600 50  0000 C CNN
F 1 "R" V 5700 2600 50  0000 C CNN
F 2 "Resistors_ThroughHole:Resistor_Horizontal_RM7mm" V 5630 2600 50  0001 C CNN
F 3 "" H 5700 2600 50  0000 C CNN
	1    5700 2600
	0    1    1    0   
$EndComp
$Comp
L R R2
U 1 1 5898B5A3
P 5700 2500
F 0 "R2" V 5600 2500 50  0000 C CNN
F 1 "R" V 5700 2500 50  0000 C CNN
F 2 "Resistors_ThroughHole:Resistor_Horizontal_RM7mm" V 5630 2500 50  0001 C CNN
F 3 "" H 5700 2500 50  0000 C CNN
	1    5700 2500
	0    1    1    0   
$EndComp
Text GLabel 2150 3850 2    60   Input ~ 0
M2_DIR
$Comp
L +5V #PWR018
U 1 1 589A698E
P 5500 1950
F 0 "#PWR018" H 5500 1800 50  0001 C CNN
F 1 "+5V" V 5500 2150 50  0000 C CNN
F 2 "" H 5500 1950 50  0000 C CNN
F 3 "" H 5500 1950 50  0000 C CNN
	1    5500 1950
	0    -1   -1   0   
$EndComp
$Comp
L CONN_01X03 P10
U 1 1 589A7222
P 5550 5150
F 0 "P10" H 5550 5350 50  0000 C CNN
F 1 "CONN_01X03" V 5650 5150 50  0000 C CNN
F 2 "Pin_Headers:Pin_Header_Straight_1x03" H 5550 5150 50  0001 C CNN
F 3 "" H 5550 5150 50  0000 C CNN
	1    5550 5150
	1    0    0    1   
$EndComp
$Comp
L CONN_01X03 P12
U 1 1 589A73E5
P 5950 5150
F 0 "P12" H 5950 5350 50  0000 C CNN
F 1 "CONN_01X03" V 6050 5150 50  0000 C CNN
F 2 "Pin_Headers:Pin_Header_Straight_1x03" H 5950 5150 50  0001 C CNN
F 3 "" H 5950 5150 50  0000 C CNN
	1    5950 5150
	-1   0    0    1   
$EndComp
$Comp
L CONN_01X03 P11
U 1 1 589A745C
P 5550 5700
F 0 "P11" H 5550 5900 50  0000 C CNN
F 1 "CONN_01X03" V 5650 5700 50  0000 C CNN
F 2 "Pin_Headers:Pin_Header_Straight_1x03" H 5550 5700 50  0001 C CNN
F 3 "" H 5550 5700 50  0000 C CNN
	1    5550 5700
	1    0    0    1   
$EndComp
$Comp
L CONN_01X03 P13
U 1 1 589A74D2
P 5950 5700
F 0 "P13" H 5950 5900 50  0000 C CNN
F 1 "CONN_01X03" V 6050 5700 50  0000 C CNN
F 2 "Pin_Headers:Pin_Header_Straight_1x03" H 5950 5700 50  0001 C CNN
F 3 "" H 5950 5700 50  0000 C CNN
	1    5950 5700
	-1   0    0    1   
$EndComp
Text GLabel 3600 3450 0    60   Input ~ 0
M1_MS1
Text GLabel 3600 3550 0    60   Input ~ 0
M1_MS2
Text GLabel 3600 3650 0    60   Input ~ 0
M1_MS3
Text GLabel 6250 5050 2    60   Input ~ 0
M1_MS1
Text GLabel 6250 5150 2    60   Input ~ 0
M1_MS2
Text GLabel 6250 5250 2    60   Input ~ 0
M1_MS3
Text GLabel 6250 5600 2    60   Input ~ 0
M2_MS1
Text GLabel 6250 5700 2    60   Input ~ 0
M2_MS2
Text GLabel 6250 5800 2    60   Input ~ 0
M2_MS3
Text GLabel 6750 3450 0    60   Input ~ 0
M2_MS1
Text GLabel 6750 3550 0    60   Input ~ 0
M2_MS2
Text GLabel 6750 3650 0    60   Input ~ 0
M2_MS3
Wire Wire Line
	4000 1950 4100 1950
Wire Wire Line
	2050 3450 2150 3450
Wire Wire Line
	2050 3250 2150 3250
Wire Wire Line
	4100 2050 4100 2100
Wire Wire Line
	3600 2050 4100 2050
Wire Wire Line
	3700 1950 3600 1950
Wire Wire Line
	2050 3350 2150 3350
Wire Wire Line
	2150 3150 2050 3150
Wire Wire Line
	2050 3050 2150 3050
Wire Wire Line
	5200 3450 5200 4450
Wire Wire Line
	5200 4050 5100 4050
Wire Wire Line
	5100 3850 5400 3850
Wire Wire Line
	5400 3750 5100 3750
Wire Wire Line
	5100 3650 5400 3650
Wire Wire Line
	5400 3550 5100 3550
Wire Wire Line
	5750 3950 5100 3950
Wire Wire Line
	5100 3450 5200 3450
Connection ~ 5200 4050
Wire Wire Line
	5350 4350 5350 4400
Wire Wire Line
	5350 4400 5200 4400
Connection ~ 5200 4400
Wire Wire Line
	5100 3350 5750 3350
Wire Wire Line
	5350 4050 5350 3350
Connection ~ 5350 3350
Wire Wire Line
	4100 3850 4000 3850
Wire Wire Line
	4000 3850 4000 3750
Wire Wire Line
	4000 3750 4100 3750
Wire Wire Line
	2150 3950 2050 3950
Wire Wire Line
	2150 4150 2050 4150
Wire Wire Line
	2150 4250 2050 4250
Wire Wire Line
	3600 3950 3700 3950
Wire Wire Line
	3700 4050 3600 4050
Wire Wire Line
	4100 3950 4000 3950
Wire Wire Line
	4000 4050 4100 4050
Wire Wire Line
	5500 1950 5600 1950
Wire Wire Line
	5900 1950 6000 1950
Wire Wire Line
	8350 3450 8350 4450
Wire Wire Line
	8350 4050 8250 4050
Wire Wire Line
	8250 3850 8550 3850
Wire Wire Line
	8550 3750 8250 3750
Wire Wire Line
	8250 3650 8550 3650
Wire Wire Line
	8550 3550 8250 3550
Wire Wire Line
	8900 3950 8250 3950
Wire Wire Line
	8250 3450 8350 3450
Connection ~ 8350 4050
Wire Wire Line
	8500 4350 8500 4400
Wire Wire Line
	8500 4400 8350 4400
Connection ~ 8350 4400
Wire Wire Line
	8250 3350 8900 3350
Wire Wire Line
	8500 4050 8500 3350
Connection ~ 8500 3350
Wire Wire Line
	7250 3850 7150 3850
Wire Wire Line
	7150 3850 7150 3750
Wire Wire Line
	7150 3750 7250 3750
Wire Wire Line
	6750 3950 6850 3950
Wire Wire Line
	6850 4050 6750 4050
Wire Wire Line
	7250 3950 7150 3950
Wire Wire Line
	7150 4050 7250 4050
Wire Wire Line
	2050 2350 2400 2350
Wire Wire Line
	2050 2250 2200 2250
Wire Wire Line
	2050 2450 2400 2450
Wire Wire Line
	2400 2450 2400 2550
Wire Wire Line
	2200 2250 2200 2150
Wire Wire Line
	2400 2350 2400 2150
Wire Wire Line
	2050 2550 2200 2550
Wire Wire Line
	2200 2550 2200 2450
Connection ~ 2200 2450
Wire Wire Line
	2050 5000 2150 5000
Wire Wire Line
	2150 4900 2150 5300
Wire Wire Line
	2150 5100 2050 5100
Connection ~ 2150 5000
Wire Wire Line
	2150 5200 2050 5200
Connection ~ 2150 5100
Wire Wire Line
	2150 5300 2050 5300
Connection ~ 2150 5200
Wire Wire Line
	2900 5000 2900 5400
Wire Wire Line
	2900 5200 2800 5200
Wire Wire Line
	2800 5100 2900 5100
Connection ~ 2900 5200
Wire Wire Line
	2900 5000 2800 5000
Connection ~ 2900 5100
Wire Wire Line
	3650 5300 3550 5300
Wire Wire Line
	3550 5200 3650 5200
Wire Wire Line
	3650 5100 3550 5100
Wire Wire Line
	3550 5000 3650 5000
Wire Wire Line
	2800 5300 2900 5300
Connection ~ 2900 5300
Wire Wire Line
	5450 2600 5550 2600
Wire Wire Line
	2150 3850 2050 3850
Wire Wire Line
	4600 2700 4600 2600
Wire Wire Line
	3700 2600 3600 2600
Wire Wire Line
	4100 2600 4200 2600
Wire Wire Line
	4600 2600 4500 2600
Wire Wire Line
	5150 5050 5350 5050
Wire Wire Line
	5250 5800 5350 5800
Wire Wire Line
	5250 5050 5250 5800
Wire Wire Line
	5250 5700 5350 5700
Wire Wire Line
	5250 5600 5350 5600
Connection ~ 5250 5700
Wire Wire Line
	5250 5250 5350 5250
Connection ~ 5250 5600
Wire Wire Line
	5250 5150 5350 5150
Connection ~ 5250 5250
Connection ~ 5250 5050
Connection ~ 5250 5150
Wire Wire Line
	3600 3450 4100 3450
Wire Wire Line
	4100 3550 3600 3550
Wire Wire Line
	3600 3650 4100 3650
Wire Wire Line
	6250 5050 6150 5050
Wire Wire Line
	6150 5150 6250 5150
Wire Wire Line
	6250 5250 6150 5250
Wire Wire Line
	6250 5800 6150 5800
Wire Wire Line
	6150 5700 6250 5700
Wire Wire Line
	6250 5600 6150 5600
Wire Wire Line
	7250 3650 6750 3650
Wire Wire Line
	6750 3550 7250 3550
Wire Wire Line
	6750 3450 7250 3450
$Comp
L VDD #PWR019
U 1 1 589AAB22
P 5150 5050
F 0 "#PWR019" H 5150 4900 50  0001 C CNN
F 1 "VDD" V 5150 5250 50  0000 C CNN
F 2 "" H 5150 5050 50  0000 C CNN
F 3 "" H 5150 5050 50  0000 C CNN
	1    5150 5050
	0    -1   -1   0   
$EndComp
Text GLabel 6050 2500 2    60   Input ~ 0
M1_EN
Text GLabel 6050 2600 2    60   Input ~ 0
M2_EN
Wire Wire Line
	5450 2500 5550 2500
Wire Wire Line
	5850 2600 6050 2600
Wire Wire Line
	5950 2600 5950 2500
Wire Wire Line
	5850 2500 6050 2500
Connection ~ 5950 2600
Connection ~ 5950 2500
Text GLabel 3600 3350 0    60   Input ~ 0
M1_EN
Text GLabel 6750 3350 0    60   Input ~ 0
M2_EN
Wire Wire Line
	6750 3350 7250 3350
Wire Wire Line
	3600 3350 4100 3350
$EndSCHEMATC
