EESchema Schematic File Version 2
LIBS:power
LIBS:device
LIBS:transistors
LIBS:conn
LIBS:linear
LIBS:regul
LIBS:74xx
LIBS:cmos4000
LIBS:adc-dac
LIBS:memory
LIBS:xilinx
LIBS:microcontrollers
LIBS:dsp
LIBS:microchip
LIBS:analog_switches
LIBS:motorola
LIBS:texas
LIBS:intel
LIBS:audio
LIBS:interface
LIBS:digital-audio
LIBS:philips
LIBS:display
LIBS:cypress
LIBS:siliconi
LIBS:opto
LIBS:atmel
LIBS:contrib
LIBS:valves
LIBS:motordrv
LIBS:cnc_motor_driver-cache
EELAYER 25 0
EELAYER END
$Descr A4 11693 8268
encoding utf-8
Sheet 1 1
Title ""
Date ""
Rev ""
Comp ""
Comment1 ""
Comment2 ""
Comment3 ""
Comment4 ""
$EndDescr
$Comp
L A4988 U1
U 1 1 589E2344
P 4900 1550
F 0 "U1" H 4900 1050 60  0000 C CNN
F 1 "A4988" H 4900 2050 60  0000 C CNN
F 2 "motordrv:A4988" H 4600 2700 60  0001 C CNN
F 3 "" H 4600 2700 60  0001 C CNN
	1    4900 1550
	1    0    0    -1  
$EndComp
$Comp
L CONN_01X04 P2
U 1 1 589E2485
P 6150 1550
F 0 "P2" H 6150 1800 50  0000 C CNN
F 1 "CONN_01X04" V 6250 1550 50  0000 C CNN
F 2 "Pin_Headers:Pin_Header_Straight_1x04" H 6150 1550 50  0001 C CNN
F 3 "" H 6150 1550 50  0000 C CNN
	1    6150 1550
	1    0    0    1   
$EndComp
$Comp
L CONN_01X03 P4
U 1 1 589E2575
P 7650 1250
F 0 "P4" H 7650 1450 50  0000 C CNN
F 1 "CONN_01X03" V 7750 1250 50  0000 C CNN
F 2 "Pin_Headers:Pin_Header_Straight_1x03" H 7650 1250 50  0001 C CNN
F 3 "" H 7650 1250 50  0000 C CNN
	1    7650 1250
	-1   0    0    -1  
$EndComp
$Comp
L CONN_01X03 P6
U 1 1 589E261A
P 7650 2350
F 0 "P6" H 7650 2550 50  0000 C CNN
F 1 "CONN_01X03" V 7750 2350 50  0000 C CNN
F 2 "Pin_Headers:Pin_Header_Straight_1x03" H 7650 2350 50  0001 C CNN
F 3 "" H 7650 2350 50  0000 C CNN
	1    7650 2350
	-1   0    0    -1  
$EndComp
$Comp
L CONN_01X03 P5
U 1 1 589E2658
P 7650 1800
F 0 "P5" H 7650 2000 50  0000 C CNN
F 1 "CONN_01X03" V 7750 1800 50  0000 C CNN
F 2 "Pin_Headers:Pin_Header_Straight_1x03" H 7650 1800 50  0001 C CNN
F 3 "" H 7650 1800 50  0000 C CNN
	1    7650 1800
	-1   0    0    -1  
$EndComp
$Comp
L CONN_01X03 P7
U 1 1 589E269A
P 7650 2900
F 0 "P7" H 7650 3100 50  0000 C CNN
F 1 "CONN_01X03" V 7750 2900 50  0000 C CNN
F 2 "Pin_Headers:Pin_Header_Straight_1x03" H 7650 2900 50  0001 C CNN
F 3 "" H 7650 2900 50  0000 C CNN
	1    7650 2900
	-1   0    0    -1  
$EndComp
$Comp
L D D1
U 1 1 589E39BF
P 8700 4300
F 0 "D1" H 8700 4400 50  0000 C CNN
F 1 "D" H 8700 4200 50  0000 C CNN
F 2 "Diodes_ThroughHole:Diode_DO-35_SOD27_Horizontal_RM10" H 8700 4300 50  0001 C CNN
F 3 "" H 8700 4300 50  0000 C CNN
	1    8700 4300
	-1   0    0    -1  
$EndComp
$Comp
L R R5
U 1 1 589E3A92
P 4150 1900
F 0 "R5" V 4100 2050 50  0000 C CNN
F 1 "R" V 4150 1900 50  0000 C CNN
F 2 "Resistors_ThroughHole:Resistor_Horizontal_RM7mm" V 4080 1900 50  0001 C CNN
F 3 "" H 4150 1900 50  0000 C CNN
	1    4150 1900
	0    1    1    0   
$EndComp
$Comp
L R R4
U 1 1 589E3C44
P 4150 1800
F 0 "R4" V 4100 1950 50  0000 C CNN
F 1 "R" V 4150 1800 50  0000 C CNN
F 2 "Resistors_ThroughHole:Resistor_Horizontal_RM7mm" V 4080 1800 50  0001 C CNN
F 3 "" H 4150 1800 50  0000 C CNN
	1    4150 1800
	0    1    1    0   
$EndComp
$Comp
L D D2
U 1 1 589E3E62
P 8700 5200
F 0 "D2" H 8700 5300 50  0000 C CNN
F 1 "D" H 8700 5100 50  0000 C CNN
F 2 "Diodes_ThroughHole:Diode_DO-35_SOD27_Horizontal_RM10" H 8700 5200 50  0001 C CNN
F 3 "" H 8700 5200 50  0000 C CNN
	1    8700 5200
	-1   0    0    -1  
$EndComp
$Comp
L R R1
U 1 1 589E3EFE
P 9150 6100
F 0 "R1" V 9230 6100 50  0000 C CNN
F 1 "R" V 9150 6100 50  0000 C CNN
F 2 "Resistors_ThroughHole:Resistor_Horizontal_RM7mm" V 9080 6100 50  0001 C CNN
F 3 "" H 9150 6100 50  0000 C CNN
	1    9150 6100
	0    -1   -1   0   
$EndComp
$Comp
L LED D3
U 1 1 589E3FA2
P 8700 6100
F 0 "D3" H 8700 6200 50  0000 C CNN
F 1 "LED" H 8700 6000 50  0000 C CNN
F 2 "LEDs:LED-5MM" H 8700 6100 50  0001 C CNN
F 3 "" H 8700 6100 50  0000 C CNN
	1    8700 6100
	-1   0    0    -1  
$EndComp
$Comp
L GND #PWR01
U 1 1 589E5D8E
P 5500 2300
F 0 "#PWR01" H 5500 2050 50  0001 C CNN
F 1 "GND" H 5500 2150 50  0000 C CNN
F 2 "" H 5500 2300 50  0000 C CNN
F 3 "" H 5500 2300 50  0000 C CNN
	1    5500 2300
	1    0    0    -1  
$EndComp
$Comp
L VCC #PWR02
U 1 1 589E5F20
P 5750 1200
F 0 "#PWR02" H 5750 1050 50  0001 C CNN
F 1 "VCC" V 5750 1400 50  0000 C CNN
F 2 "" H 5750 1200 50  0000 C CNN
F 3 "" H 5750 1200 50  0000 C CNN
	1    5750 1200
	0    1    1    0   
$EndComp
$Comp
L VCC #PWR03
U 1 1 589E5F96
P 8950 4300
F 0 "#PWR03" H 8950 4150 50  0001 C CNN
F 1 "VCC" V 8950 4500 50  0000 C CNN
F 2 "" H 8950 4300 50  0000 C CNN
F 3 "" H 8950 4300 50  0000 C CNN
	1    8950 4300
	0    1    1    0   
$EndComp
$Comp
L VDD #PWR04
U 1 1 589E6012
P 5750 1800
F 0 "#PWR04" H 5750 1650 50  0001 C CNN
F 1 "VDD" V 5750 2000 50  0000 C CNN
F 2 "" H 5750 1800 50  0000 C CNN
F 3 "" H 5750 1800 50  0000 C CNN
	1    5750 1800
	0    1    1    0   
$EndComp
$Comp
L VDD #PWR05
U 1 1 589E609C
P 9150 4800
F 0 "#PWR05" H 9150 4650 50  0001 C CNN
F 1 "VDD" V 9150 5000 50  0000 C CNN
F 2 "" H 9150 4800 50  0000 C CNN
F 3 "" H 9150 4800 50  0000 C CNN
	1    9150 4800
	0    1    1    0   
$EndComp
$Comp
L CONN_01X02 P8
U 1 1 589E6D71
P 7650 4350
F 0 "P8" H 7650 4500 50  0000 C CNN
F 1 "CONN_01X02" V 7750 4350 50  0000 C CNN
F 2 "Terminal_Blocks:TerminalBlock_Pheonix_MKDS1.5-2pol" H 7650 4350 50  0001 C CNN
F 3 "" H 7650 4350 50  0000 C CNN
	1    7650 4350
	-1   0    0    1   
$EndComp
Text GLabel 3900 1300 0    60   Input ~ 0
M1_MS1
Text GLabel 3900 1400 0    60   Input ~ 0
M1_MS2
Text GLabel 3900 1500 0    60   Input ~ 0
M1_MS3
Text GLabel 3900 1200 0    60   Input ~ 0
M1_EN
Text GLabel 3900 1800 0    60   Input ~ 0
M1_STEP
Text GLabel 3900 1900 0    60   Input ~ 0
M1_DIR
Text GLabel 2300 1800 2    60   Input ~ 0
M1_DIR
Text GLabel 2300 1700 2    60   Input ~ 0
M1_STEP
$Comp
L VDD #PWR06
U 1 1 589E87DA
P 7950 1050
F 0 "#PWR06" H 7950 900 50  0001 C CNN
F 1 "VDD" H 7950 1200 50  0000 C CNN
F 2 "" H 7950 1050 50  0000 C CNN
F 3 "" H 7950 1050 50  0000 C CNN
	1    7950 1050
	-1   0    0    -1  
$EndComp
Text GLabel 7950 2250 2    60   Input ~ 0
M1_MS1
Text GLabel 7950 2350 2    60   Input ~ 0
M1_MS2
Text GLabel 7950 2450 2    60   Input ~ 0
M1_MS3
Text GLabel 7950 2800 2    60   Input ~ 0
M2_MS1
Text GLabel 7950 2900 2    60   Input ~ 0
M2_MS2
Text GLabel 7950 3000 2    60   Input ~ 0
M2_MS3
$Comp
L +5V #PWR07
U 1 1 589EB112
P 2200 1100
F 0 "#PWR07" H 2200 950 50  0001 C CNN
F 1 "+5V" V 2200 1300 50  0000 C CNN
F 2 "" H 2200 1100 50  0000 C CNN
F 3 "" H 2200 1100 50  0000 C CNN
	1    2200 1100
	0    1    1    0   
$EndComp
Text GLabel 2300 1400 2    60   Input ~ 0
M2_STEP
Text GLabel 2300 1500 2    60   Input ~ 0
M2_DIR
$Comp
L +5V #PWR08
U 1 1 589EC4FB
P 7850 5200
F 0 "#PWR08" H 7850 5050 50  0001 C CNN
F 1 "+5V" V 7850 5400 50  0000 C CNN
F 2 "" H 7850 5200 50  0000 C CNN
F 3 "" H 7850 5200 50  0000 C CNN
	1    7850 5200
	0    -1   -1   0   
$EndComp
$Comp
L VCC #PWR09
U 1 1 589EF162
P 8400 6100
F 0 "#PWR09" H 8400 5950 50  0001 C CNN
F 1 "VCC" V 8400 6300 50  0000 C CNN
F 2 "" H 8400 6100 50  0000 C CNN
F 3 "" H 8400 6100 50  0000 C CNN
	1    8400 6100
	0    -1   -1   0   
$EndComp
$Comp
L CP C1
U 1 1 589F45BA
P 5650 2050
F 0 "C1" H 5675 2150 50  0000 L CNN
F 1 "CP" H 5675 1950 50  0000 L CNN
F 2 "Capacitors_ThroughHole:C_Radial_D8_L13_P3.8" H 5688 1900 50  0001 C CNN
F 3 "" H 5650 2050 50  0000 C CNN
	1    5650 2050
	1    0    0    -1  
$EndComp
$Comp
L GND #PWR010
U 1 1 589F4EA7
P 7950 4500
F 0 "#PWR010" H 7950 4250 50  0001 C CNN
F 1 "GND" H 7950 4350 50  0000 C CNN
F 2 "" H 7950 4500 50  0000 C CNN
F 3 "" H 7950 4500 50  0000 C CNN
	1    7950 4500
	1    0    0    -1  
$EndComp
$Comp
L GND #PWR011
U 1 1 589F4F6F
P 9400 6200
F 0 "#PWR011" H 9400 5950 50  0001 C CNN
F 1 "GND" H 9400 6050 50  0000 C CNN
F 2 "" H 9400 6200 50  0000 C CNN
F 3 "" H 9400 6200 50  0000 C CNN
	1    9400 6200
	1    0    0    -1  
$EndComp
$Comp
L A4988 U2
U 1 1 589F6F8D
P 4900 3200
F 0 "U2" H 4900 2700 60  0000 C CNN
F 1 "A4988" H 4900 3700 60  0000 C CNN
F 2 "motordrv:A4988" H 4600 4350 60  0001 C CNN
F 3 "" H 4600 4350 60  0001 C CNN
	1    4900 3200
	1    0    0    -1  
$EndComp
$Comp
L CONN_01X04 P3
U 1 1 589F6F93
P 6150 3200
F 0 "P3" H 6150 3450 50  0000 C CNN
F 1 "CONN_01X04" V 6250 3200 50  0000 C CNN
F 2 "Pin_Headers:Pin_Header_Straight_1x04" H 6150 3200 50  0001 C CNN
F 3 "" H 6150 3200 50  0000 C CNN
	1    6150 3200
	1    0    0    1   
$EndComp
$Comp
L R R9
U 1 1 589F6F99
P 4150 3550
F 0 "R9" V 4100 3700 50  0000 C CNN
F 1 "R" V 4150 3550 50  0000 C CNN
F 2 "Resistors_ThroughHole:Resistor_Horizontal_RM7mm" V 4080 3550 50  0001 C CNN
F 3 "" H 4150 3550 50  0000 C CNN
	1    4150 3550
	0    1    1    0   
$EndComp
$Comp
L R R8
U 1 1 589F6F9F
P 4150 3450
F 0 "R8" V 4100 3600 50  0000 C CNN
F 1 "R" V 4150 3450 50  0000 C CNN
F 2 "Resistors_ThroughHole:Resistor_Horizontal_RM7mm" V 4080 3450 50  0001 C CNN
F 3 "" H 4150 3450 50  0000 C CNN
	1    4150 3450
	0    1    1    0   
$EndComp
$Comp
L GND #PWR012
U 1 1 589F6FA5
P 5500 3950
F 0 "#PWR012" H 5500 3700 50  0001 C CNN
F 1 "GND" H 5500 3800 50  0000 C CNN
F 2 "" H 5500 3950 50  0000 C CNN
F 3 "" H 5500 3950 50  0000 C CNN
	1    5500 3950
	1    0    0    -1  
$EndComp
$Comp
L VCC #PWR013
U 1 1 589F6FAB
P 5750 2850
F 0 "#PWR013" H 5750 2700 50  0001 C CNN
F 1 "VCC" V 5750 3050 50  0000 C CNN
F 2 "" H 5750 2850 50  0000 C CNN
F 3 "" H 5750 2850 50  0000 C CNN
	1    5750 2850
	0    1    1    0   
$EndComp
$Comp
L VDD #PWR014
U 1 1 589F6FB1
P 5750 3450
F 0 "#PWR014" H 5750 3300 50  0001 C CNN
F 1 "VDD" V 5750 3650 50  0000 C CNN
F 2 "" H 5750 3450 50  0000 C CNN
F 3 "" H 5750 3450 50  0000 C CNN
	1    5750 3450
	0    1    1    0   
$EndComp
Text GLabel 3900 2950 0    60   Input ~ 0
M2_MS1
Text GLabel 3900 3050 0    60   Input ~ 0
M2_MS2
Text GLabel 3900 3150 0    60   Input ~ 0
M2_MS3
Text GLabel 3900 3450 0    60   Input ~ 0
M2_STEP
Text GLabel 3900 3550 0    60   Input ~ 0
M2_DIR
$Comp
L CP C2
U 1 1 589F6FCE
P 5650 3700
F 0 "C2" H 5675 3800 50  0000 L CNN
F 1 "CP" H 5675 3600 50  0000 L CNN
F 2 "Capacitors_ThroughHole:C_Radial_D8_L13_P3.8" H 5688 3550 50  0001 C CNN
F 3 "" H 5650 3700 50  0000 C CNN
	1    5650 3700
	1    0    0    -1  
$EndComp
$Comp
L R R2
U 1 1 589EAB8F
P 4150 1100
F 0 "R2" V 4200 950 50  0000 C CNN
F 1 "R" V 4150 1100 50  0000 C CNN
F 2 "Resistors_ThroughHole:Resistor_Horizontal_RM7mm" V 4080 1100 50  0001 C CNN
F 3 "" H 4150 1100 50  0000 C CNN
	1    4150 1100
	0    -1   -1   0   
$EndComp
$Comp
L R R3
U 1 1 589EAB95
P 4150 1200
F 0 "R3" V 4100 1350 50  0000 C CNN
F 1 "R" V 4150 1200 50  0000 C CNN
F 2 "Resistors_ThroughHole:Resistor_Horizontal_RM7mm" V 4080 1200 50  0001 C CNN
F 3 "" H 4150 1200 50  0000 C CNN
	1    4150 1200
	0    1    1    0   
$EndComp
Text GLabel 3900 2850 0    60   Input ~ 0
M2_EN
$Comp
L VDD #PWR015
U 1 1 589EAB9C
P 3900 1100
F 0 "#PWR015" H 3900 950 50  0001 C CNN
F 1 "VDD" V 3900 1300 50  0000 C CNN
F 2 "" H 3900 1100 50  0000 C CNN
F 3 "" H 3900 1100 50  0000 C CNN
	1    3900 1100
	0    -1   -1   0   
$EndComp
$Comp
L GND #PWR016
U 1 1 58A5B4C0
P 2200 2100
F 0 "#PWR016" H 2200 1850 50  0001 C CNN
F 1 "GND" H 2200 1950 50  0000 C CNN
F 2 "" H 2200 2100 50  0000 C CNN
F 3 "" H 2200 2100 50  0000 C CNN
	1    2200 2100
	1    0    0    -1  
$EndComp
Text GLabel 2300 1300 2    60   Input ~ 0
M2_EN
Text GLabel 2300 1600 2    60   Input ~ 0
M1_EN
$Comp
L R R7
U 1 1 58A60182
P 4150 2850
F 0 "R7" V 4100 3000 50  0000 C CNN
F 1 "R" V 4150 2850 50  0000 C CNN
F 2 "Resistors_ThroughHole:Resistor_Horizontal_RM7mm" V 4080 2850 50  0001 C CNN
F 3 "" H 4150 2850 50  0000 C CNN
	1    4150 2850
	0    1    1    0   
$EndComp
$Comp
L R R6
U 1 1 58A60234
P 4150 2750
F 0 "R6" V 4200 2600 50  0000 C CNN
F 1 "R" V 4150 2750 50  0000 C CNN
F 2 "Resistors_ThroughHole:Resistor_Horizontal_RM7mm" V 4080 2750 50  0001 C CNN
F 3 "" H 4150 2750 50  0000 C CNN
	1    4150 2750
	0    -1   -1   0   
$EndComp
$Comp
L VDD #PWR017
U 1 1 58A602A9
P 3900 2750
F 0 "#PWR017" H 3900 2600 50  0001 C CNN
F 1 "VDD" V 3900 2950 50  0000 C CNN
F 2 "" H 3900 2750 50  0000 C CNN
F 3 "" H 3900 2750 50  0000 C CNN
	1    3900 2750
	0    -1   -1   0   
$EndComp
$Comp
L FUSE F1
U 1 1 58A6B537
P 8200 4300
F 0 "F1" H 8300 4350 50  0000 C CNN
F 1 "FUSE" H 8100 4250 50  0000 C CNN
F 2 "Fuse_Holders_and_Fuses:Fuse_TE5_Littlefuse-395Series" H 8200 4300 50  0001 C CNN
F 3 "" H 8200 4300 50  0000 C CNN
	1    8200 4300
	1    0    0    -1  
$EndComp
$Comp
L FUSE F2
U 1 1 58A7924E
P 8200 5200
F 0 "F2" H 8300 5250 50  0000 C CNN
F 1 "FUSE" H 8100 5150 50  0000 C CNN
F 2 "Fuse_Holders_and_Fuses:Fuse_TE5_Littlefuse-395Series" H 8200 5200 50  0001 C CNN
F 3 "" H 8200 5200 50  0000 C CNN
	1    8200 5200
	1    0    0    -1  
$EndComp
$Comp
L LM1117-3.3 U3
U 1 1 58A68B2C
P 9450 5200
F 0 "U3" H 9550 4950 50  0000 C CNN
F 1 "LM1117-3.3" H 9450 5450 50  0000 C CNN
F 2 "TO_SOT_Packages_THT:TO-220_Neutral123_Horizontal" H 9450 5200 50  0001 C CNN
F 3 "" H 9450 5200 50  0000 C CNN
	1    9450 5200
	1    0    0    -1  
$EndComp
$Comp
L CP C3
U 1 1 58A69351
P 9050 5400
F 0 "C3" H 9075 5500 50  0000 L CNN
F 1 "CP" H 9075 5300 50  0000 L CNN
F 2 "Capacitors_ThroughHole:C_Radial_D5_L11_P2.5" H 9088 5250 50  0001 C CNN
F 3 "" H 9050 5400 50  0000 C CNN
	1    9050 5400
	1    0    0    -1  
$EndComp
$Comp
L CP C4
U 1 1 58A69418
P 9850 5400
F 0 "C4" H 9875 5500 50  0000 L CNN
F 1 "CP" H 9875 5300 50  0000 L CNN
F 2 "Capacitors_ThroughHole:C_Radial_D5_L11_P2.5" H 9888 5250 50  0001 C CNN
F 3 "" H 9850 5400 50  0000 C CNN
	1    9850 5400
	1    0    0    -1  
$EndComp
$Comp
L GND #PWR018
U 1 1 58A695D2
P 9450 5700
F 0 "#PWR018" H 9450 5450 50  0001 C CNN
F 1 "GND" H 9450 5550 50  0000 C CNN
F 2 "" H 9450 5700 50  0000 C CNN
F 3 "" H 9450 5700 50  0000 C CNN
	1    9450 5700
	1    0    0    -1  
$EndComp
Text GLabel 1400 1900 0    60   Input ~ 0
IN_1A
$Comp
L CONN_02X10 P1
U 1 1 58A6A69D
P 1850 1550
F 0 "P1" H 1850 2100 50  0000 C CNN
F 1 "CONN_02X10" V 1850 1550 50  0000 C CNN
F 2 "Connect:IDC_Header_Straight_20pins" H 1850 350 50  0001 C CNN
F 3 "" H 1850 350 50  0000 C CNN
	1    1850 1550
	1    0    0    -1  
$EndComp
$Comp
L GND #PWR019
U 1 1 58A84E57
P 9500 2950
F 0 "#PWR019" H 9500 2700 50  0001 C CNN
F 1 "GND" H 9500 2800 50  0000 C CNN
F 2 "" H 9500 2950 50  0000 C CNN
F 3 "" H 9500 2950 50  0000 C CNN
	1    9500 2950
	1    0    0    -1  
$EndComp
$Comp
L R R10
U 1 1 58A866F5
P 9650 3250
F 0 "R10" V 9600 3450 50  0000 C CNN
F 1 "R" V 9650 3250 50  0000 C CNN
F 2 "Resistors_ThroughHole:Resistor_Horizontal_RM7mm" V 9580 3250 50  0001 C CNN
F 3 "" H 9650 3250 50  0000 C CNN
	1    9650 3250
	0    1    1    0   
$EndComp
$Comp
L R R11
U 1 1 58A86953
P 9650 3350
F 0 "R11" V 9700 3150 50  0000 C CNN
F 1 "R" V 9650 3350 50  0000 C CNN
F 2 "Resistors_ThroughHole:Resistor_Horizontal_RM7mm" V 9580 3350 50  0001 C CNN
F 3 "" H 9650 3350 50  0000 C CNN
	1    9650 3350
	0    -1   -1   0   
$EndComp
$Comp
L R R12
U 1 1 58A869CD
P 9650 3450
F 0 "R12" V 9600 3650 50  0000 C CNN
F 1 "R" V 9650 3450 50  0000 C CNN
F 2 "Resistors_ThroughHole:Resistor_Horizontal_RM7mm" V 9580 3450 50  0001 C CNN
F 3 "" H 9650 3450 50  0000 C CNN
	1    9650 3450
	0    1    1    0   
$EndComp
$Comp
L R R13
U 1 1 58A86A4A
P 9650 3550
F 0 "R13" V 9700 3350 50  0000 C CNN
F 1 "R" V 9650 3550 50  0000 C CNN
F 2 "Resistors_ThroughHole:Resistor_Horizontal_RM7mm" V 9580 3550 50  0001 C CNN
F 3 "" H 9650 3550 50  0000 C CNN
	1    9650 3550
	0    -1   -1   0   
$EndComp
$Comp
L +3.3V #PWR020
U 1 1 58A8C627
P 10050 5200
F 0 "#PWR020" H 10050 5050 50  0001 C CNN
F 1 "+3.3V" V 10050 5450 50  0000 C CNN
F 2 "" H 10050 5200 50  0000 C CNN
F 3 "" H 10050 5200 50  0000 C CNN
	1    10050 5200
	0    1    1    0   
$EndComp
$Comp
L +3.3V #PWR021
U 1 1 58A9A8C6
P 9500 1050
F 0 "#PWR021" H 9500 900 50  0001 C CNN
F 1 "+3.3V" H 9500 1190 50  0000 C CNN
F 2 "" H 9500 1050 50  0000 C CNN
F 3 "" H 9500 1050 50  0000 C CNN
	1    9500 1050
	1    0    0    -1  
$EndComp
Text GLabel 1400 1800 0    60   Input ~ 0
IN_1B
Text GLabel 1400 1700 0    60   Input ~ 0
IN_2A
Text GLabel 1400 1600 0    60   Input ~ 0
IN_2B
Text GLabel 1400 1500 0    60   Input ~ 0
IN_3A
Text GLabel 1400 1400 0    60   Input ~ 0
IN_3B
Text GLabel 1400 1300 0    60   Input ~ 0
IN_4A
Text GLabel 1400 1200 0    60   Input ~ 0
IN_4B
Wire Wire Line
	4300 1900 4400 1900
Wire Wire Line
	4400 1800 4300 1800
Wire Wire Line
	5950 1700 5400 1700
Wire Wire Line
	5400 1600 5950 1600
Wire Wire Line
	5950 1500 5400 1500
Wire Wire Line
	5400 1400 5950 1400
Wire Wire Line
	5400 1800 5750 1800
Wire Wire Line
	5400 1200 5750 1200
Wire Wire Line
	4400 1700 4300 1700
Wire Wire Line
	4300 1700 4300 1600
Wire Wire Line
	4300 1600 4400 1600
Wire Wire Line
	3900 1500 4400 1500
Wire Wire Line
	4400 1400 3900 1400
Wire Wire Line
	3900 1300 4400 1300
Wire Wire Line
	3900 1800 4000 1800
Wire Wire Line
	4000 1900 3900 1900
Wire Wire Line
	7950 2250 7850 2250
Wire Wire Line
	7850 2350 7950 2350
Wire Wire Line
	7950 2450 7850 2450
Wire Wire Line
	7850 3000 7950 3000
Wire Wire Line
	7950 2900 7850 2900
Wire Wire Line
	7850 2800 7950 2800
Wire Wire Line
	9000 6100 8900 6100
Wire Wire Line
	8450 5200 8550 5200
Wire Wire Line
	8950 4300 8850 4300
Wire Wire Line
	8500 6100 8400 6100
Wire Wire Line
	5400 1900 5500 1900
Wire Wire Line
	5500 1300 5500 2300
Wire Wire Line
	5500 1300 5400 1300
Connection ~ 5500 1900
Wire Wire Line
	5650 2200 5650 2250
Wire Wire Line
	5650 2250 5500 2250
Connection ~ 5500 2250
Wire Wire Line
	5650 1900 5650 1200
Connection ~ 5650 1200
Wire Wire Line
	9300 6100 9400 6100
Wire Wire Line
	9400 6100 9400 6200
Wire Wire Line
	7850 4400 7950 4400
Wire Wire Line
	7950 4400 7950 4500
Wire Wire Line
	4300 3550 4400 3550
Wire Wire Line
	4400 3450 4300 3450
Wire Wire Line
	5950 3350 5400 3350
Wire Wire Line
	5400 3250 5950 3250
Wire Wire Line
	5950 3150 5400 3150
Wire Wire Line
	5400 3050 5950 3050
Wire Wire Line
	5400 3450 5750 3450
Wire Wire Line
	5400 2850 5750 2850
Wire Wire Line
	4400 3350 4300 3350
Wire Wire Line
	4300 3350 4300 3250
Wire Wire Line
	4300 3250 4400 3250
Wire Wire Line
	3900 3150 4400 3150
Wire Wire Line
	4400 3050 3900 3050
Wire Wire Line
	3900 2950 4400 2950
Wire Wire Line
	3900 3450 4000 3450
Wire Wire Line
	4000 3550 3900 3550
Wire Wire Line
	5400 3550 5500 3550
Wire Wire Line
	5500 2950 5500 3950
Wire Wire Line
	5500 2950 5400 2950
Connection ~ 5500 3550
Wire Wire Line
	5650 3850 5650 3900
Wire Wire Line
	5650 3900 5500 3900
Connection ~ 5500 3900
Wire Wire Line
	5650 3550 5650 2850
Connection ~ 5650 2850
Wire Wire Line
	4400 2850 4300 2850
Wire Wire Line
	4400 2850 4400 2750
Wire Wire Line
	4400 2750 4300 2750
Wire Wire Line
	4000 2750 3900 2750
Wire Wire Line
	4000 2850 3900 2850
Wire Wire Line
	3900 1200 4000 1200
Wire Wire Line
	4000 1100 3900 1100
Wire Wire Line
	4300 1100 4400 1100
Wire Wire Line
	4400 1100 4400 1200
Wire Wire Line
	4400 1200 4300 1200
Wire Wire Line
	7850 4300 7950 4300
Wire Wire Line
	8550 4300 8450 4300
Wire Wire Line
	7850 5200 7950 5200
Wire Wire Line
	8850 5200 9150 5200
Wire Wire Line
	9450 5500 9450 5700
Wire Wire Line
	9850 5600 9850 5550
Wire Wire Line
	9050 5550 9050 5600
Wire Wire Line
	9050 5600 9850 5600
Connection ~ 9450 5600
Wire Wire Line
	9850 5250 9850 5200
Wire Wire Line
	9750 5200 10050 5200
Connection ~ 9850 5200
Wire Wire Line
	9050 4800 9050 5250
Connection ~ 9050 5200
Wire Wire Line
	7950 1900 7850 1900
Wire Wire Line
	7950 1050 7950 1900
Wire Wire Line
	7950 1800 7850 1800
Wire Wire Line
	7850 1700 7950 1700
Connection ~ 7950 1800
Wire Wire Line
	7950 1350 7850 1350
Wire Wire Line
	7950 1250 7850 1250
Wire Wire Line
	7850 1150 7950 1150
Connection ~ 7950 1250
Connection ~ 7950 1150
Connection ~ 7950 1700
Connection ~ 7950 1350
Wire Wire Line
	2100 1300 2300 1300
Wire Wire Line
	2300 1400 2100 1400
Wire Wire Line
	2100 1500 2300 1500
Wire Wire Line
	2300 1600 2100 1600
Wire Wire Line
	2100 1700 2300 1700
Wire Wire Line
	2300 1800 2100 1800
Wire Wire Line
	9150 4800 9050 4800
Wire Wire Line
	2100 1100 2200 1100
Wire Wire Line
	2100 2000 2200 2000
Wire Wire Line
	2200 2000 2200 2100
Wire Wire Line
	1400 1900 1600 1900
Wire Wire Line
	1600 1800 1400 1800
Wire Wire Line
	1400 1700 1600 1700
Wire Wire Line
	1400 1200 1600 1200
Wire Wire Line
	1600 1300 1400 1300
Wire Wire Line
	1400 1400 1600 1400
Wire Wire Line
	1600 1500 1400 1500
Wire Wire Line
	1400 1600 1600 1600
Text GLabel 10000 3950 2    60   Input ~ 0
IN_1A
Text GLabel 10000 3850 2    60   Input ~ 0
IN_1B
Text GLabel 10000 3750 2    60   Input ~ 0
IN_2A
Text GLabel 10000 3650 2    60   Input ~ 0
IN_2B
Text GLabel 10000 3550 2    60   Input ~ 0
IN_3A
Text GLabel 10000 3450 2    60   Input ~ 0
IN_3B
Text GLabel 10000 3350 2    60   Input ~ 0
IN_4A
Text GLabel 10000 3250 2    60   Input ~ 0
IN_4B
$Comp
L R R14
U 1 1 58AA80AD
P 9650 3650
F 0 "R14" V 9600 3850 50  0000 C CNN
F 1 "R" V 9650 3650 50  0000 C CNN
F 2 "Resistors_ThroughHole:Resistor_Horizontal_RM7mm" V 9580 3650 50  0001 C CNN
F 3 "" H 9650 3650 50  0000 C CNN
	1    9650 3650
	0    1    1    0   
$EndComp
$Comp
L R R16
U 1 1 58AA8138
P 9650 3850
F 0 "R16" V 9600 4050 50  0000 C CNN
F 1 "R" V 9650 3850 50  0000 C CNN
F 2 "Resistors_ThroughHole:Resistor_Horizontal_RM7mm" V 9580 3850 50  0001 C CNN
F 3 "" H 9650 3850 50  0000 C CNN
	1    9650 3850
	0    1    1    0   
$EndComp
$Comp
L R R15
U 1 1 58AA8228
P 9650 3750
F 0 "R15" V 9700 3550 50  0000 C CNN
F 1 "R" V 9650 3750 50  0000 C CNN
F 2 "Resistors_ThroughHole:Resistor_Horizontal_RM7mm" V 9580 3750 50  0001 C CNN
F 3 "" H 9650 3750 50  0000 C CNN
	1    9650 3750
	0    -1   -1   0   
$EndComp
$Comp
L R R17
U 1 1 58AA82BD
P 9650 3950
F 0 "R17" V 9700 3750 50  0000 C CNN
F 1 "R" V 9650 3950 50  0000 C CNN
F 2 "Resistors_ThroughHole:Resistor_Horizontal_RM7mm" V 9580 3950 50  0001 C CNN
F 3 "" H 9650 3950 50  0000 C CNN
	1    9650 3950
	0    -1   -1   0   
$EndComp
Wire Wire Line
	9800 3950 10000 3950
Wire Wire Line
	10000 3850 9800 3850
Wire Wire Line
	9800 3750 10000 3750
Wire Wire Line
	10000 3650 9800 3650
Wire Wire Line
	9800 3550 10000 3550
Wire Wire Line
	10000 3450 9800 3450
Wire Wire Line
	9800 3350 10000 3350
Wire Wire Line
	10000 3250 9800 3250
$Comp
L CONN_01X08 P9
U 1 1 58AA97A2
P 9200 1500
F 0 "P9" H 9200 1950 50  0000 C CNN
F 1 "CONN_01X08" V 9300 1500 50  0000 C CNN
F 2 "Pin_Headers:Pin_Header_Straight_1x08" H 9200 1500 50  0001 C CNN
F 3 "" H 9200 1500 50  0000 C CNN
	1    9200 1500
	-1   0    0    -1  
$EndComp
$Comp
L CONN_01X08 P10
U 1 1 58AA9835
P 9200 2500
F 0 "P10" H 9200 2950 50  0000 C CNN
F 1 "CONN_01X08" V 9300 2500 50  0000 C CNN
F 2 "Pin_Headers:Pin_Header_Straight_1x08" H 9200 2500 50  0001 C CNN
F 3 "" H 9200 2500 50  0000 C CNN
	1    9200 2500
	-1   0    0    -1  
$EndComp
$Comp
L CONN_01X08 P11
U 1 1 58AA9932
P 9200 3600
F 0 "P11" H 9200 4050 50  0000 C CNN
F 1 "CONN_01X08" V 9300 3600 50  0000 C CNN
F 2 "Pin_Headers:Pin_Header_Straight_1x08" H 9200 3600 50  0001 C CNN
F 3 "" H 9200 3600 50  0000 C CNN
	1    9200 3600
	-1   0    0    -1  
$EndComp
Wire Wire Line
	9400 1150 9500 1150
Wire Wire Line
	9500 1050 9500 1850
Wire Wire Line
	9500 2850 9400 2850
Wire Wire Line
	9500 2150 9500 2950
Wire Wire Line
	9400 3950 9500 3950
Wire Wire Line
	9500 3850 9400 3850
Wire Wire Line
	9400 3750 9500 3750
Wire Wire Line
	9500 3650 9400 3650
Wire Wire Line
	9400 3550 9500 3550
Wire Wire Line
	9400 3450 9500 3450
Wire Wire Line
	9400 3350 9500 3350
Wire Wire Line
	9500 3250 9400 3250
Wire Wire Line
	9500 2750 9400 2750
Connection ~ 9500 2850
Wire Wire Line
	9400 2650 9500 2650
Connection ~ 9500 2750
Wire Wire Line
	9400 2550 9500 2550
Connection ~ 9500 2650
Wire Wire Line
	9400 2450 9500 2450
Connection ~ 9500 2550
Wire Wire Line
	9400 2350 9500 2350
Connection ~ 9500 2450
Wire Wire Line
	9400 2250 9500 2250
Connection ~ 9500 2350
Wire Wire Line
	9400 2150 9500 2150
Connection ~ 9500 2250
Wire Wire Line
	9500 1850 9400 1850
Wire Wire Line
	9500 1750 9400 1750
Wire Wire Line
	9400 1650 9500 1650
Connection ~ 9500 1750
Wire Wire Line
	9400 1550 9500 1550
Connection ~ 9500 1650
Wire Wire Line
	9400 1450 9500 1450
Connection ~ 9500 1550
Wire Wire Line
	9400 1350 9500 1350
Connection ~ 9500 1450
Wire Wire Line
	9400 1250 9500 1250
Connection ~ 9500 1350
Connection ~ 9500 1250
Connection ~ 9500 1150
$EndSCHEMATC
