EESchema Schematic File Version 2
LIBS:power
LIBS:device
LIBS:transistors
LIBS:conn
LIBS:linear
LIBS:regul
LIBS:74xx
LIBS:cmos4000
LIBS:adc-dac
LIBS:memory
LIBS:xilinx
LIBS:microcontrollers
LIBS:dsp
LIBS:microchip
LIBS:analog_switches
LIBS:motorola
LIBS:texas
LIBS:intel
LIBS:audio
LIBS:interface
LIBS:digital-audio
LIBS:philips
LIBS:display
LIBS:cypress
LIBS:siliconi
LIBS:opto
LIBS:atmel
LIBS:contrib
LIBS:valves
LIBS:motordrv
LIBS:cnc_motor_driver-cache
EELAYER 25 0
EELAYER END
$Descr A4 11693 8268
encoding utf-8
Sheet 1 1
Title ""
Date ""
Rev ""
Comp ""
Comment1 ""
Comment2 ""
Comment3 ""
Comment4 ""
$EndDescr
$Comp
L A4988 U1
U 1 1 589E2344
P 5400 3000
F 0 "U1" H 5400 2500 60  0000 C CNN
F 1 "A4988" H 5400 3500 60  0000 C CNN
F 2 "motordrv:A4988" H 5100 4150 60  0001 C CNN
F 3 "" H 5100 4150 60  0001 C CNN
	1    5400 3000
	1    0    0    -1  
$EndComp
$Comp
L CONN_01X04 P3
U 1 1 589E2485
P 6650 3000
F 0 "P3" H 6650 3250 50  0000 C CNN
F 1 "CONN_01X04" V 6750 3000 50  0000 C CNN
F 2 "Pin_Headers:Pin_Header_Straight_1x04" H 6650 3000 50  0001 C CNN
F 3 "" H 6650 3000 50  0000 C CNN
	1    6650 3000
	1    0    0    1   
$EndComp
$Comp
L CONN_01X03 P6
U 1 1 589E2575
P 8400 2550
F 0 "P6" H 8400 2750 50  0000 C CNN
F 1 "CONN_01X03" V 8500 2550 50  0000 C CNN
F 2 "Pin_Headers:Pin_Header_Straight_1x03" H 8400 2550 50  0001 C CNN
F 3 "" H 8400 2550 50  0000 C CNN
	1    8400 2550
	-1   0    0    -1  
$EndComp
$Comp
L CONN_01X03 P9
U 1 1 589E261A
P 9150 2550
F 0 "P9" H 9150 2750 50  0000 C CNN
F 1 "CONN_01X03" V 9250 2550 50  0000 C CNN
F 2 "Pin_Headers:Pin_Header_Straight_1x03" H 9150 2550 50  0001 C CNN
F 3 "" H 9150 2550 50  0000 C CNN
	1    9150 2550
	-1   0    0    -1  
$EndComp
$Comp
L CONN_01X03 P7
U 1 1 589E2658
P 8400 3100
F 0 "P7" H 8400 3300 50  0000 C CNN
F 1 "CONN_01X03" V 8500 3100 50  0000 C CNN
F 2 "Pin_Headers:Pin_Header_Straight_1x03" H 8400 3100 50  0001 C CNN
F 3 "" H 8400 3100 50  0000 C CNN
	1    8400 3100
	-1   0    0    -1  
$EndComp
$Comp
L CONN_01X03 P10
U 1 1 589E269A
P 9150 3100
F 0 "P10" H 9150 3300 50  0000 C CNN
F 1 "CONN_01X03" V 9250 3100 50  0000 C CNN
F 2 "Pin_Headers:Pin_Header_Straight_1x03" H 9150 3100 50  0001 C CNN
F 3 "" H 9150 3100 50  0000 C CNN
	1    9150 3100
	-1   0    0    -1  
$EndComp
$Comp
L D D1
U 1 1 589E39BF
P 5100 1050
F 0 "D1" H 5100 1150 50  0000 C CNN
F 1 "D" H 5100 950 50  0000 C CNN
F 2 "Diodes_ThroughHole:Diode_DO-35_SOD27_Horizontal_RM10" H 5100 1050 50  0001 C CNN
F 3 "" H 5100 1050 50  0000 C CNN
	1    5100 1050
	-1   0    0    -1  
$EndComp
$Comp
L R R3
U 1 1 589E3A92
P 4650 3350
F 0 "R3" V 4730 3350 50  0000 C CNN
F 1 "R" V 4650 3350 50  0000 C CNN
F 2 "Resistors_ThroughHole:Resistor_Horizontal_RM7mm" V 4580 3350 50  0001 C CNN
F 3 "" H 4650 3350 50  0000 C CNN
	1    4650 3350
	0    1    1    0   
$EndComp
$Comp
L R R2
U 1 1 589E3C44
P 4650 3250
F 0 "R2" V 4550 3250 50  0000 C CNN
F 1 "R" V 4650 3250 50  0000 C CNN
F 2 "Resistors_ThroughHole:Resistor_Horizontal_RM7mm" V 4580 3250 50  0001 C CNN
F 3 "" H 4650 3250 50  0000 C CNN
	1    4650 3250
	0    1    1    0   
$EndComp
$Comp
L D D2
U 1 1 589E3E62
P 5100 1700
F 0 "D2" H 5100 1800 50  0000 C CNN
F 1 "D" H 5100 1600 50  0000 C CNN
F 2 "Diodes_ThroughHole:Diode_DO-35_SOD27_Horizontal_RM10" H 5100 1700 50  0001 C CNN
F 3 "" H 5100 1700 50  0000 C CNN
	1    5100 1700
	-1   0    0    -1  
$EndComp
$Comp
L R R1
U 1 1 589E3EFE
P 7200 1050
F 0 "R1" V 7280 1050 50  0000 C CNN
F 1 "R" V 7200 1050 50  0000 C CNN
F 2 "Resistors_ThroughHole:Resistor_Horizontal_RM7mm" V 7130 1050 50  0001 C CNN
F 3 "" H 7200 1050 50  0000 C CNN
	1    7200 1050
	0    -1   -1   0   
$EndComp
$Comp
L LED D3
U 1 1 589E3FA2
P 6750 1050
F 0 "D3" H 6750 1150 50  0000 C CNN
F 1 "LED" H 6750 950 50  0000 C CNN
F 2 "LEDs:LED-5MM" H 6750 1050 50  0001 C CNN
F 3 "" H 6750 1050 50  0000 C CNN
	1    6750 1050
	-1   0    0    -1  
$EndComp
$Comp
L GND #PWR01
U 1 1 589E5D8E
P 6000 3750
F 0 "#PWR01" H 6000 3500 50  0001 C CNN
F 1 "GND" H 6000 3600 50  0000 C CNN
F 2 "" H 6000 3750 50  0000 C CNN
F 3 "" H 6000 3750 50  0000 C CNN
	1    6000 3750
	1    0    0    -1  
$EndComp
$Comp
L VCC #PWR02
U 1 1 589E5F20
P 6250 2650
F 0 "#PWR02" H 6250 2500 50  0001 C CNN
F 1 "VCC" V 6250 2850 50  0000 C CNN
F 2 "" H 6250 2650 50  0000 C CNN
F 3 "" H 6250 2650 50  0000 C CNN
	1    6250 2650
	0    1    1    0   
$EndComp
$Comp
L VCC #PWR03
U 1 1 589E5F96
P 5350 1050
F 0 "#PWR03" H 5350 900 50  0001 C CNN
F 1 "VCC" V 5350 1250 50  0000 C CNN
F 2 "" H 5350 1050 50  0000 C CNN
F 3 "" H 5350 1050 50  0000 C CNN
	1    5350 1050
	0    1    1    0   
$EndComp
$Comp
L VDD #PWR04
U 1 1 589E6012
P 6250 3250
F 0 "#PWR04" H 6250 3100 50  0001 C CNN
F 1 "VDD" V 6250 3450 50  0000 C CNN
F 2 "" H 6250 3250 50  0000 C CNN
F 3 "" H 6250 3250 50  0000 C CNN
	1    6250 3250
	0    1    1    0   
$EndComp
$Comp
L VDD #PWR05
U 1 1 589E609C
P 6450 1700
F 0 "#PWR05" H 6450 1550 50  0001 C CNN
F 1 "VDD" V 6450 1900 50  0000 C CNN
F 2 "" H 6450 1700 50  0000 C CNN
F 3 "" H 6450 1700 50  0000 C CNN
	1    6450 1700
	0    1    1    0   
$EndComp
$Comp
L CONN_01X02 P2
U 1 1 589E6D71
P 4050 1100
F 0 "P2" H 4050 1250 50  0000 C CNN
F 1 "CONN_01X02" V 4150 1100 50  0000 C CNN
F 2 "Terminal_Blocks:TerminalBlock_Pheonix_MKDS1.5-2pol" H 4050 1100 50  0001 C CNN
F 3 "" H 4050 1100 50  0000 C CNN
	1    4050 1100
	-1   0    0    1   
$EndComp
Text GLabel 4400 2750 0    60   Input ~ 0
M1_MS1
Text GLabel 4400 2850 0    60   Input ~ 0
M1_MS2
Text GLabel 4400 2950 0    60   Input ~ 0
M1_MS3
Text GLabel 4400 2650 0    60   Input ~ 0
M1_EN
Text GLabel 4400 3250 0    60   Input ~ 0
M1_STEP
Text GLabel 4400 3350 0    60   Input ~ 0
M1_DIR
Text GLabel 2700 3800 2    60   Input ~ 0
M1_DIR
Text GLabel 2700 3700 2    60   Input ~ 0
M1_STEP
$Comp
L VDD #PWR06
U 1 1 589E87DA
P 8700 2350
F 0 "#PWR06" H 8700 2200 50  0001 C CNN
F 1 "VDD" H 8700 2500 50  0000 C CNN
F 2 "" H 8700 2350 50  0000 C CNN
F 3 "" H 8700 2350 50  0000 C CNN
	1    8700 2350
	-1   0    0    -1  
$EndComp
Text GLabel 9450 2450 2    60   Input ~ 0
M1_MS1
Text GLabel 9450 2550 2    60   Input ~ 0
M1_MS2
Text GLabel 9450 2650 2    60   Input ~ 0
M1_MS3
Text GLabel 9450 3000 2    60   Input ~ 0
M2_MS1
Text GLabel 9450 3100 2    60   Input ~ 0
M2_MS2
Text GLabel 9450 3200 2    60   Input ~ 0
M2_MS3
$Comp
L +5V #PWR07
U 1 1 589EB112
P 2700 2100
F 0 "#PWR07" H 2700 1950 50  0001 C CNN
F 1 "+5V" V 2700 2300 50  0000 C CNN
F 2 "" H 2700 2100 50  0000 C CNN
F 3 "" H 2700 2100 50  0000 C CNN
	1    2700 2100
	0    1    1    0   
$EndComp
Text GLabel 2700 3300 2    60   Input ~ 0
M2_STEP
Text GLabel 2700 3400 2    60   Input ~ 0
M2_DIR
$Comp
L +5V #PWR08
U 1 1 589EC4FB
P 4250 1700
F 0 "#PWR08" H 4250 1550 50  0001 C CNN
F 1 "+5V" V 4250 1900 50  0000 C CNN
F 2 "" H 4250 1700 50  0000 C CNN
F 3 "" H 4250 1700 50  0000 C CNN
	1    4250 1700
	0    -1   -1   0   
$EndComp
$Comp
L VCC #PWR09
U 1 1 589EF162
P 6450 1050
F 0 "#PWR09" H 6450 900 50  0001 C CNN
F 1 "VCC" V 6450 1250 50  0000 C CNN
F 2 "" H 6450 1050 50  0000 C CNN
F 3 "" H 6450 1050 50  0000 C CNN
	1    6450 1050
	0    -1   -1   0   
$EndComp
$Comp
L CP C1
U 1 1 589F45BA
P 6150 3500
F 0 "C1" H 6175 3600 50  0000 L CNN
F 1 "CP" H 6175 3400 50  0000 L CNN
F 2 "Capacitors_ThroughHole:C_Radial_D8_L13_P3.8" H 6188 3350 50  0001 C CNN
F 3 "" H 6150 3500 50  0000 C CNN
	1    6150 3500
	1    0    0    -1  
$EndComp
$Comp
L GND #PWR010
U 1 1 589F4EA7
P 4350 1250
F 0 "#PWR010" H 4350 1000 50  0001 C CNN
F 1 "GND" H 4350 1100 50  0000 C CNN
F 2 "" H 4350 1250 50  0000 C CNN
F 3 "" H 4350 1250 50  0000 C CNN
	1    4350 1250
	1    0    0    -1  
$EndComp
$Comp
L GND #PWR011
U 1 1 589F4F6F
P 7450 1150
F 0 "#PWR011" H 7450 900 50  0001 C CNN
F 1 "GND" H 7450 1000 50  0000 C CNN
F 2 "" H 7450 1150 50  0000 C CNN
F 3 "" H 7450 1150 50  0000 C CNN
	1    7450 1150
	1    0    0    -1  
$EndComp
$Comp
L A4988 U2
U 1 1 589F6F8D
P 5400 4650
F 0 "U2" H 5400 4150 60  0000 C CNN
F 1 "A4988" H 5400 5150 60  0000 C CNN
F 2 "motordrv:A4988" H 5100 5800 60  0001 C CNN
F 3 "" H 5100 5800 60  0001 C CNN
	1    5400 4650
	1    0    0    -1  
$EndComp
$Comp
L CONN_01X04 P4
U 1 1 589F6F93
P 6650 4650
F 0 "P4" H 6650 4900 50  0000 C CNN
F 1 "CONN_01X04" V 6750 4650 50  0000 C CNN
F 2 "Pin_Headers:Pin_Header_Straight_1x04" H 6650 4650 50  0001 C CNN
F 3 "" H 6650 4650 50  0000 C CNN
	1    6650 4650
	1    0    0    1   
$EndComp
$Comp
L R R5
U 1 1 589F6F99
P 4650 5000
F 0 "R5" V 4730 5000 50  0000 C CNN
F 1 "R" V 4650 5000 50  0000 C CNN
F 2 "Resistors_ThroughHole:Resistor_Horizontal_RM7mm" V 4580 5000 50  0001 C CNN
F 3 "" H 4650 5000 50  0000 C CNN
	1    4650 5000
	0    1    1    0   
$EndComp
$Comp
L R R4
U 1 1 589F6F9F
P 4650 4900
F 0 "R4" V 4550 4900 50  0000 C CNN
F 1 "R" V 4650 4900 50  0000 C CNN
F 2 "Resistors_ThroughHole:Resistor_Horizontal_RM7mm" V 4580 4900 50  0001 C CNN
F 3 "" H 4650 4900 50  0000 C CNN
	1    4650 4900
	0    1    1    0   
$EndComp
$Comp
L GND #PWR012
U 1 1 589F6FA5
P 6000 5400
F 0 "#PWR012" H 6000 5150 50  0001 C CNN
F 1 "GND" H 6000 5250 50  0000 C CNN
F 2 "" H 6000 5400 50  0000 C CNN
F 3 "" H 6000 5400 50  0000 C CNN
	1    6000 5400
	1    0    0    -1  
$EndComp
$Comp
L VCC #PWR013
U 1 1 589F6FAB
P 6250 4300
F 0 "#PWR013" H 6250 4150 50  0001 C CNN
F 1 "VCC" V 6250 4500 50  0000 C CNN
F 2 "" H 6250 4300 50  0000 C CNN
F 3 "" H 6250 4300 50  0000 C CNN
	1    6250 4300
	0    1    1    0   
$EndComp
$Comp
L VDD #PWR014
U 1 1 589F6FB1
P 6250 4900
F 0 "#PWR014" H 6250 4750 50  0001 C CNN
F 1 "VDD" V 6250 5100 50  0000 C CNN
F 2 "" H 6250 4900 50  0000 C CNN
F 3 "" H 6250 4900 50  0000 C CNN
	1    6250 4900
	0    1    1    0   
$EndComp
Text GLabel 4400 4400 0    60   Input ~ 0
M2_MS1
Text GLabel 4400 4500 0    60   Input ~ 0
M2_MS2
Text GLabel 4400 4600 0    60   Input ~ 0
M2_MS3
Text GLabel 4400 4900 0    60   Input ~ 0
M2_STEP
Text GLabel 4400 5000 0    60   Input ~ 0
M2_DIR
$Comp
L CP C2
U 1 1 589F6FCE
P 6150 5150
F 0 "C2" H 6175 5250 50  0000 L CNN
F 1 "CP" H 6175 5050 50  0000 L CNN
F 2 "Capacitors_ThroughHole:C_Radial_D8_L13_P3.8" H 6188 5000 50  0001 C CNN
F 3 "" H 6150 5150 50  0000 C CNN
	1    6150 5150
	1    0    0    -1  
$EndComp
$Comp
L R R8
U 1 1 589EAB8F
P 4650 2550
F 0 "R8" V 4730 2550 50  0000 C CNN
F 1 "R" V 4650 2550 50  0000 C CNN
F 2 "Resistors_ThroughHole:Resistor_Horizontal_RM7mm" V 4580 2550 50  0001 C CNN
F 3 "" H 4650 2550 50  0000 C CNN
	1    4650 2550
	0    -1   -1   0   
$EndComp
$Comp
L R R9
U 1 1 589EAB95
P 4650 2650
F 0 "R9" V 4730 2650 50  0000 C CNN
F 1 "R" V 4650 2650 50  0000 C CNN
F 2 "Resistors_ThroughHole:Resistor_Horizontal_RM7mm" V 4580 2650 50  0001 C CNN
F 3 "" H 4650 2650 50  0000 C CNN
	1    4650 2650
	0    1    1    0   
$EndComp
Text GLabel 4400 4300 0    60   Input ~ 0
M2_EN
$Comp
L VDD #PWR015
U 1 1 589EAB9C
P 4400 2550
F 0 "#PWR015" H 4400 2400 50  0001 C CNN
F 1 "VDD" V 4400 2750 50  0000 C CNN
F 2 "" H 4400 2550 50  0000 C CNN
F 3 "" H 4400 2550 50  0000 C CNN
	1    4400 2550
	0    -1   -1   0   
$EndComp
$Comp
L A4988 U3
U 1 1 58A47F97
P 5400 6300
F 0 "U3" H 5400 5800 60  0000 C CNN
F 1 "A4988" H 5400 6800 60  0000 C CNN
F 2 "motordrv:A4988" H 5100 7450 60  0001 C CNN
F 3 "" H 5100 7450 60  0001 C CNN
	1    5400 6300
	1    0    0    -1  
$EndComp
$Comp
L CONN_01X04 P5
U 1 1 58A47F9D
P 6650 6300
F 0 "P5" H 6650 6550 50  0000 C CNN
F 1 "CONN_01X04" V 6750 6300 50  0000 C CNN
F 2 "Pin_Headers:Pin_Header_Straight_1x04" H 6650 6300 50  0001 C CNN
F 3 "" H 6650 6300 50  0000 C CNN
	1    6650 6300
	1    0    0    1   
$EndComp
$Comp
L R R7
U 1 1 58A47FA3
P 4650 6650
F 0 "R7" V 4730 6650 50  0000 C CNN
F 1 "R" V 4650 6650 50  0000 C CNN
F 2 "Resistors_ThroughHole:Resistor_Horizontal_RM7mm" V 4580 6650 50  0001 C CNN
F 3 "" H 4650 6650 50  0000 C CNN
	1    4650 6650
	0    1    1    0   
$EndComp
$Comp
L R R6
U 1 1 58A47FA9
P 4650 6550
F 0 "R6" V 4550 6550 50  0000 C CNN
F 1 "R" V 4650 6550 50  0000 C CNN
F 2 "Resistors_ThroughHole:Resistor_Horizontal_RM7mm" V 4580 6550 50  0001 C CNN
F 3 "" H 4650 6550 50  0000 C CNN
	1    4650 6550
	0    1    1    0   
$EndComp
$Comp
L GND #PWR016
U 1 1 58A47FAF
P 6000 7050
F 0 "#PWR016" H 6000 6800 50  0001 C CNN
F 1 "GND" H 6000 6900 50  0000 C CNN
F 2 "" H 6000 7050 50  0000 C CNN
F 3 "" H 6000 7050 50  0000 C CNN
	1    6000 7050
	1    0    0    -1  
$EndComp
$Comp
L VCC #PWR017
U 1 1 58A47FB5
P 6250 5950
F 0 "#PWR017" H 6250 5800 50  0001 C CNN
F 1 "VCC" V 6250 6150 50  0000 C CNN
F 2 "" H 6250 5950 50  0000 C CNN
F 3 "" H 6250 5950 50  0000 C CNN
	1    6250 5950
	0    1    1    0   
$EndComp
$Comp
L VDD #PWR018
U 1 1 58A47FBB
P 6250 6550
F 0 "#PWR018" H 6250 6400 50  0001 C CNN
F 1 "VDD" V 6250 6750 50  0000 C CNN
F 2 "" H 6250 6550 50  0000 C CNN
F 3 "" H 6250 6550 50  0000 C CNN
	1    6250 6550
	0    1    1    0   
$EndComp
Text GLabel 4400 6050 0    60   Input ~ 0
M3_MS1
Text GLabel 4400 6150 0    60   Input ~ 0
M3_MS2
Text GLabel 4400 6250 0    60   Input ~ 0
M3_MS3
Text GLabel 4400 6550 0    60   Input ~ 0
M3_STEP
Text GLabel 4400 6650 0    60   Input ~ 0
M3_DIR
$Comp
L CP C3
U 1 1 58A47FD6
P 6150 6800
F 0 "C3" H 6175 6900 50  0000 L CNN
F 1 "CP" H 6175 6700 50  0000 L CNN
F 2 "Capacitors_ThroughHole:C_Radial_D8_L13_P3.8" H 6188 6650 50  0001 C CNN
F 3 "" H 6150 6800 50  0000 C CNN
	1    6150 6800
	1    0    0    -1  
$EndComp
Text GLabel 4400 5950 0    60   Input ~ 0
M3_EN
$Comp
L CONN_01X03 P8
U 1 1 58A4A215
P 8400 3650
F 0 "P8" H 8400 3850 50  0000 C CNN
F 1 "CONN_01X03" V 8500 3650 50  0000 C CNN
F 2 "Pin_Headers:Pin_Header_Straight_1x03" H 8400 3650 50  0001 C CNN
F 3 "" H 8400 3650 50  0000 C CNN
	1    8400 3650
	-1   0    0    -1  
$EndComp
$Comp
L CONN_01X03 P11
U 1 1 58A4A21B
P 9150 3650
F 0 "P11" H 9150 3850 50  0000 C CNN
F 1 "CONN_01X03" V 9250 3650 50  0000 C CNN
F 2 "Pin_Headers:Pin_Header_Straight_1x03" H 9150 3650 50  0001 C CNN
F 3 "" H 9150 3650 50  0000 C CNN
	1    9150 3650
	-1   0    0    -1  
$EndComp
Text GLabel 9450 3550 2    60   Input ~ 0
M3_MS1
Text GLabel 9450 3650 2    60   Input ~ 0
M3_MS2
Text GLabel 9450 3750 2    60   Input ~ 0
M3_MS3
Text GLabel 2700 2900 2    60   Input ~ 0
M3_STEP
Text GLabel 2700 3000 2    60   Input ~ 0
M3_DIR
Text GLabel 2700 2800 2    60   Input ~ 0
M3_EN
$Comp
L GND #PWR019
U 1 1 58A5B4C0
P 2600 4300
F 0 "#PWR019" H 2600 4050 50  0001 C CNN
F 1 "GND" H 2600 4150 50  0000 C CNN
F 2 "" H 2600 4300 50  0000 C CNN
F 3 "" H 2600 4300 50  0000 C CNN
	1    2600 4300
	1    0    0    -1  
$EndComp
Text GLabel 2700 3200 2    60   Input ~ 0
M2_EN
Text GLabel 2700 3600 2    60   Input ~ 0
M1_EN
$Comp
L R R11
U 1 1 58A60182
P 4650 4300
F 0 "R11" V 4730 4300 50  0000 C CNN
F 1 "R" V 4650 4300 50  0000 C CNN
F 2 "Resistors_ThroughHole:Resistor_Horizontal_RM7mm" V 4580 4300 50  0001 C CNN
F 3 "" H 4650 4300 50  0000 C CNN
	1    4650 4300
	0    1    1    0   
$EndComp
$Comp
L R R10
U 1 1 58A60234
P 4650 4200
F 0 "R10" V 4730 4200 50  0000 C CNN
F 1 "R" V 4650 4200 50  0000 C CNN
F 2 "Resistors_ThroughHole:Resistor_Horizontal_RM7mm" V 4580 4200 50  0001 C CNN
F 3 "" H 4650 4200 50  0000 C CNN
	1    4650 4200
	0    -1   -1   0   
$EndComp
$Comp
L VDD #PWR020
U 1 1 58A602A9
P 4400 4200
F 0 "#PWR020" H 4400 4050 50  0001 C CNN
F 1 "VDD" V 4400 4400 50  0000 C CNN
F 2 "" H 4400 4200 50  0000 C CNN
F 3 "" H 4400 4200 50  0000 C CNN
	1    4400 4200
	0    -1   -1   0   
$EndComp
$Comp
L VDD #PWR021
U 1 1 58A6070D
P 4400 5850
F 0 "#PWR021" H 4400 5700 50  0001 C CNN
F 1 "VDD" V 4400 6050 50  0000 C CNN
F 2 "" H 4400 5850 50  0000 C CNN
F 3 "" H 4400 5850 50  0000 C CNN
	1    4400 5850
	0    -1   -1   0   
$EndComp
$Comp
L R R12
U 1 1 58A60790
P 4650 5850
F 0 "R12" V 4730 5850 50  0000 C CNN
F 1 "R" V 4650 5850 50  0000 C CNN
F 2 "Resistors_ThroughHole:Resistor_Horizontal_RM7mm" V 4580 5850 50  0001 C CNN
F 3 "" H 4650 5850 50  0000 C CNN
	1    4650 5850
	0    -1   -1   0   
$EndComp
$Comp
L R R13
U 1 1 58A60843
P 4650 5950
F 0 "R13" V 4730 5950 50  0000 C CNN
F 1 "R" V 4650 5950 50  0000 C CNN
F 2 "Resistors_ThroughHole:Resistor_Horizontal_RM7mm" V 4580 5950 50  0001 C CNN
F 3 "" H 4650 5950 50  0000 C CNN
	1    4650 5950
	0    1    1    0   
$EndComp
$Comp
L CONN_02X20 P1
U 1 1 58A64072
P 2250 3050
F 0 "P1" H 2250 4100 50  0000 C CNN
F 1 "CONN_02X20" V 2250 3050 50  0000 C CNN
F 2 "Connect:IDC_Header_Straight_40pins" H 2250 2100 50  0001 C CNN
F 3 "" H 2250 2100 50  0000 C CNN
	1    2250 3050
	1    0    0    -1  
$EndComp
$Comp
L FUSE F1
U 1 1 58A6B537
P 4600 1050
F 0 "F1" H 4700 1100 50  0000 C CNN
F 1 "FUSE" H 4500 1000 50  0000 C CNN
F 2 "Fuse_Holders_and_Fuses:Fuse_TE5_Littlefuse-395Series" H 4600 1050 50  0001 C CNN
F 3 "" H 4600 1050 50  0000 C CNN
	1    4600 1050
	1    0    0    -1  
$EndComp
$Comp
L FUSE F2
U 1 1 58A7924E
P 4600 1700
F 0 "F2" H 4700 1750 50  0000 C CNN
F 1 "FUSE" H 4500 1650 50  0000 C CNN
F 2 "Fuse_Holders_and_Fuses:Fuse_TE5_Littlefuse-395Series" H 4600 1700 50  0001 C CNN
F 3 "" H 4600 1700 50  0000 C CNN
	1    4600 1700
	1    0    0    -1  
$EndComp
Wire Wire Line
	4800 3350 4900 3350
Wire Wire Line
	4900 3250 4800 3250
Wire Wire Line
	6450 3150 5900 3150
Wire Wire Line
	5900 3050 6450 3050
Wire Wire Line
	6450 2950 5900 2950
Wire Wire Line
	5900 2850 6450 2850
Wire Wire Line
	5900 3250 6250 3250
Wire Wire Line
	5900 2650 6250 2650
Wire Wire Line
	4900 3150 4800 3150
Wire Wire Line
	4800 3150 4800 3050
Wire Wire Line
	4800 3050 4900 3050
Wire Wire Line
	4400 2950 4900 2950
Wire Wire Line
	4900 2850 4400 2850
Wire Wire Line
	4400 2750 4900 2750
Wire Wire Line
	4400 3250 4500 3250
Wire Wire Line
	4500 3350 4400 3350
Wire Wire Line
	8700 2450 8600 2450
Wire Wire Line
	8700 2550 8600 2550
Connection ~ 8700 2450
Wire Wire Line
	8700 2650 8600 2650
Connection ~ 8700 2550
Wire Wire Line
	8700 3000 8600 3000
Connection ~ 8700 2650
Wire Wire Line
	8700 3100 8600 3100
Connection ~ 8700 3000
Wire Wire Line
	8700 3200 8600 3200
Connection ~ 8700 3100
Wire Wire Line
	9450 2450 9350 2450
Wire Wire Line
	9350 2550 9450 2550
Wire Wire Line
	9450 2650 9350 2650
Wire Wire Line
	9350 3200 9450 3200
Wire Wire Line
	9450 3100 9350 3100
Wire Wire Line
	9350 3000 9450 3000
Wire Wire Line
	7050 1050 6950 1050
Wire Wire Line
	4850 1700 4950 1700
Wire Wire Line
	5350 1050 5250 1050
Wire Wire Line
	6550 1050 6450 1050
Wire Wire Line
	5900 3350 6000 3350
Wire Wire Line
	6000 2750 6000 3750
Wire Wire Line
	6000 2750 5900 2750
Connection ~ 6000 3350
Wire Wire Line
	6150 3650 6150 3700
Wire Wire Line
	6150 3700 6000 3700
Connection ~ 6000 3700
Wire Wire Line
	6150 3350 6150 2650
Connection ~ 6150 2650
Wire Wire Line
	7350 1050 7450 1050
Wire Wire Line
	7450 1050 7450 1150
Wire Wire Line
	4250 1150 4350 1150
Wire Wire Line
	4350 1150 4350 1250
Wire Wire Line
	4800 5000 4900 5000
Wire Wire Line
	4900 4900 4800 4900
Wire Wire Line
	6450 4800 5900 4800
Wire Wire Line
	5900 4700 6450 4700
Wire Wire Line
	6450 4600 5900 4600
Wire Wire Line
	5900 4500 6450 4500
Wire Wire Line
	5900 4900 6250 4900
Wire Wire Line
	5900 4300 6250 4300
Wire Wire Line
	4900 4800 4800 4800
Wire Wire Line
	4800 4800 4800 4700
Wire Wire Line
	4800 4700 4900 4700
Wire Wire Line
	4400 4600 4900 4600
Wire Wire Line
	4900 4500 4400 4500
Wire Wire Line
	4400 4400 4900 4400
Wire Wire Line
	4400 4900 4500 4900
Wire Wire Line
	4500 5000 4400 5000
Wire Wire Line
	5900 5000 6000 5000
Wire Wire Line
	6000 4400 6000 5400
Wire Wire Line
	6000 4400 5900 4400
Connection ~ 6000 5000
Wire Wire Line
	6150 5300 6150 5350
Wire Wire Line
	6150 5350 6000 5350
Connection ~ 6000 5350
Wire Wire Line
	6150 5000 6150 4300
Connection ~ 6150 4300
Wire Wire Line
	4800 6650 4900 6650
Wire Wire Line
	4900 6550 4800 6550
Wire Wire Line
	6450 6450 5900 6450
Wire Wire Line
	5900 6350 6450 6350
Wire Wire Line
	6450 6250 5900 6250
Wire Wire Line
	5900 6150 6450 6150
Wire Wire Line
	5900 6550 6250 6550
Wire Wire Line
	5900 5950 6250 5950
Wire Wire Line
	4900 6450 4800 6450
Wire Wire Line
	4800 6450 4800 6350
Wire Wire Line
	4800 6350 4900 6350
Wire Wire Line
	4400 6250 4900 6250
Wire Wire Line
	4900 6150 4400 6150
Wire Wire Line
	4400 6050 4900 6050
Wire Wire Line
	4400 6550 4500 6550
Wire Wire Line
	4500 6650 4400 6650
Wire Wire Line
	5900 6650 6000 6650
Wire Wire Line
	6000 6050 6000 7050
Wire Wire Line
	6000 6050 5900 6050
Connection ~ 6000 6650
Wire Wire Line
	6150 6950 6150 7000
Wire Wire Line
	6150 7000 6000 7000
Connection ~ 6000 7000
Wire Wire Line
	6150 6650 6150 5950
Connection ~ 6150 5950
Wire Wire Line
	9350 3750 9450 3750
Wire Wire Line
	9450 3650 9350 3650
Wire Wire Line
	9350 3550 9450 3550
Wire Wire Line
	8700 3550 8600 3550
Connection ~ 8700 3200
Wire Wire Line
	8700 3650 8600 3650
Connection ~ 8700 3550
Wire Wire Line
	8700 3750 8600 3750
Connection ~ 8700 3650
Wire Wire Line
	4400 5950 4500 5950
Wire Wire Line
	4500 5850 4400 5850
Wire Wire Line
	4800 5850 4900 5850
Wire Wire Line
	4900 5850 4900 5950
Wire Wire Line
	4900 5950 4800 5950
Wire Wire Line
	4900 4300 4800 4300
Wire Wire Line
	4900 4300 4900 4200
Wire Wire Line
	4900 4200 4800 4200
Wire Wire Line
	4500 4200 4400 4200
Wire Wire Line
	4500 4300 4400 4300
Wire Wire Line
	4400 2650 4500 2650
Wire Wire Line
	4500 2550 4400 2550
Wire Wire Line
	4800 2550 4900 2550
Wire Wire Line
	4900 2550 4900 2650
Wire Wire Line
	4900 2650 4800 2650
Wire Wire Line
	8700 2350 8700 3750
Wire Wire Line
	4250 1050 4350 1050
Wire Wire Line
	4950 1050 4850 1050
Wire Wire Line
	4250 1700 4350 1700
Wire Wire Line
	2000 2100 1950 2100
Wire Wire Line
	1950 2100 1950 1900
Wire Wire Line
	2500 2100 2700 2100
Wire Wire Line
	2600 2100 2600 1900
Wire Wire Line
	2600 1900 1950 1900
Connection ~ 2600 2100
Wire Wire Line
	2000 4000 2000 4200
Wire Wire Line
	2000 4200 2600 4200
Wire Wire Line
	2600 4000 2600 4300
Wire Wire Line
	2600 4000 2500 4000
Connection ~ 2600 4200
Wire Wire Line
	2500 3800 2700 3800
Wire Wire Line
	2700 3700 2500 3700
Wire Wire Line
	2500 3600 2700 3600
Wire Wire Line
	2500 3400 2700 3400
Wire Wire Line
	2700 3300 2500 3300
Wire Wire Line
	2500 3200 2700 3200
Wire Wire Line
	2700 3000 2500 3000
Wire Wire Line
	2500 2900 2700 2900
Wire Wire Line
	2700 2800 2500 2800
$Comp
L LM1117-3.3 U4
U 1 1 58A68B2C
P 5850 1700
F 0 "U4" H 5950 1450 50  0000 C CNN
F 1 "LM1117-3.3" H 5850 1950 50  0000 C CNN
F 2 "TO_SOT_Packages_SMD:SOT-223" H 5850 1700 50  0001 C CNN
F 3 "" H 5850 1700 50  0000 C CNN
	1    5850 1700
	1    0    0    -1  
$EndComp
$Comp
L CP C4
U 1 1 58A69351
P 5450 1900
F 0 "C4" H 5475 2000 50  0000 L CNN
F 1 "CP" H 5475 1800 50  0000 L CNN
F 2 "Capacitors_ThroughHole:C_Radial_D5_L11_P2.5" H 5488 1750 50  0001 C CNN
F 3 "" H 5450 1900 50  0000 C CNN
	1    5450 1900
	1    0    0    -1  
$EndComp
$Comp
L CP C5
U 1 1 58A69418
P 6250 1900
F 0 "C5" H 6275 2000 50  0000 L CNN
F 1 "CP" H 6275 1800 50  0000 L CNN
F 2 "Capacitors_ThroughHole:C_Radial_D5_L11_P2.5" H 6288 1750 50  0001 C CNN
F 3 "" H 6250 1900 50  0000 C CNN
	1    6250 1900
	1    0    0    -1  
$EndComp
$Comp
L GND #PWR022
U 1 1 58A695D2
P 5850 2200
F 0 "#PWR022" H 5850 1950 50  0001 C CNN
F 1 "GND" H 5850 2050 50  0000 C CNN
F 2 "" H 5850 2200 50  0000 C CNN
F 3 "" H 5850 2200 50  0000 C CNN
	1    5850 2200
	1    0    0    -1  
$EndComp
Wire Wire Line
	5250 1700 5550 1700
Wire Wire Line
	5850 2000 5850 2200
Wire Wire Line
	6250 2100 6250 2050
Wire Wire Line
	5450 2050 5450 2100
Wire Wire Line
	5450 2100 6250 2100
Connection ~ 5850 2100
Wire Wire Line
	6250 1750 6250 1700
Wire Wire Line
	6150 1700 6450 1700
Connection ~ 6250 1700
Wire Wire Line
	5450 1750 5450 1700
Connection ~ 5450 1700
$EndSCHEMATC
