EESchema Schematic File Version 2
LIBS:power
LIBS:device
LIBS:transistors
LIBS:conn
LIBS:linear
LIBS:regul
LIBS:74xx
LIBS:cmos4000
LIBS:adc-dac
LIBS:memory
LIBS:xilinx
LIBS:microcontrollers
LIBS:dsp
LIBS:microchip
LIBS:analog_switches
LIBS:motorola
LIBS:texas
LIBS:intel
LIBS:audio
LIBS:interface
LIBS:digital-audio
LIBS:philips
LIBS:display
LIBS:cypress
LIBS:siliconi
LIBS:opto
LIBS:atmel
LIBS:contrib
LIBS:valves
LIBS:motordrv
LIBS:cnc_motor_driver-cache
EELAYER 25 0
EELAYER END
$Descr A4 11693 8268
encoding utf-8
Sheet 1 1
Title ""
Date ""
Rev ""
Comp ""
Comment1 ""
Comment2 ""
Comment3 ""
Comment4 ""
$EndDescr
$Comp
L A4988 U1
U 1 1 589E2344
P 6000 2850
F 0 "U1" H 6000 2350 60  0000 C CNN
F 1 "A4988" H 6000 3350 60  0000 C CNN
F 2 "motordrv:A4988" H 5700 4000 60  0001 C CNN
F 3 "" H 5700 4000 60  0001 C CNN
	1    6000 2850
	1    0    0    -1  
$EndComp
$Comp
L CONN_01X04 P2
U 1 1 589E2485
P 7250 2850
F 0 "P2" H 7250 3100 50  0000 C CNN
F 1 "CONN_01X04" V 7350 2850 50  0000 C CNN
F 2 "Pin_Headers:Pin_Header_Straight_1x04" H 7250 2850 50  0001 C CNN
F 3 "" H 7250 2850 50  0000 C CNN
	1    7250 2850
	1    0    0    1   
$EndComp
$Comp
L CONN_01X03 P3
U 1 1 589E2575
P 8400 2550
F 0 "P3" H 8400 2750 50  0000 C CNN
F 1 "CONN_01X03" V 8500 2550 50  0000 C CNN
F 2 "Pin_Headers:Pin_Header_Straight_1x03" H 8400 2550 50  0001 C CNN
F 3 "" H 8400 2550 50  0000 C CNN
	1    8400 2550
	-1   0    0    -1  
$EndComp
$Comp
L CONN_01X03 P4
U 1 1 589E261A
P 8400 3300
F 0 "P4" H 8400 3500 50  0000 C CNN
F 1 "CONN_01X03" V 8500 3300 50  0000 C CNN
F 2 "Pin_Headers:Pin_Header_Straight_1x03" H 8400 3300 50  0001 C CNN
F 3 "" H 8400 3300 50  0000 C CNN
	1    8400 3300
	-1   0    0    -1  
$EndComp
$Comp
L D D1
U 1 1 589E39BF
P 3350 3850
F 0 "D1" H 3350 3950 50  0000 C CNN
F 1 "D" H 3350 3750 50  0000 C CNN
F 2 "Diodes_ThroughHole:Diode_DO-35_SOD27_Horizontal_RM10" H 3350 3850 50  0001 C CNN
F 3 "" H 3350 3850 50  0000 C CNN
	1    3350 3850
	-1   0    0    -1  
$EndComp
$Comp
L R R5
U 1 1 589E3A92
P 5250 3200
F 0 "R5" V 5300 3050 50  0000 C CNN
F 1 "R" V 5250 3200 50  0000 C CNN
F 2 "Resistors_ThroughHole:Resistor_Horizontal_RM7mm" V 5180 3200 50  0001 C CNN
F 3 "" H 5250 3200 50  0000 C CNN
	1    5250 3200
	0    -1   -1   0   
$EndComp
$Comp
L R R4
U 1 1 589E3C44
P 5250 3100
F 0 "R4" V 5300 2950 50  0000 C CNN
F 1 "R" V 5250 3100 50  0000 C CNN
F 2 "Resistors_ThroughHole:Resistor_Horizontal_RM7mm" V 5180 3100 50  0001 C CNN
F 3 "" H 5250 3100 50  0000 C CNN
	1    5250 3100
	0    -1   -1   0   
$EndComp
$Comp
L D D2
U 1 1 589E3E62
P 3350 4750
F 0 "D2" H 3350 4850 50  0000 C CNN
F 1 "D" H 3350 4650 50  0000 C CNN
F 2 "Diodes_ThroughHole:Diode_DO-35_SOD27_Horizontal_RM10" H 3350 4750 50  0001 C CNN
F 3 "" H 3350 4750 50  0000 C CNN
	1    3350 4750
	-1   0    0    -1  
$EndComp
$Comp
L R R1
U 1 1 589E3EFE
P 3800 5650
F 0 "R1" V 3880 5650 50  0000 C CNN
F 1 "R" V 3800 5650 50  0000 C CNN
F 2 "Resistors_ThroughHole:Resistor_Horizontal_RM7mm" V 3730 5650 50  0001 C CNN
F 3 "" H 3800 5650 50  0000 C CNN
	1    3800 5650
	0    -1   -1   0   
$EndComp
$Comp
L LED D3
U 1 1 589E3FA2
P 3350 5650
F 0 "D3" H 3350 5750 50  0000 C CNN
F 1 "LED" H 3350 5550 50  0000 C CNN
F 2 "LEDs:LED-5MM" H 3350 5650 50  0001 C CNN
F 3 "" H 3350 5650 50  0000 C CNN
	1    3350 5650
	-1   0    0    -1  
$EndComp
$Comp
L GND #PWR01
U 1 1 589E5D8E
P 6600 3600
F 0 "#PWR01" H 6600 3350 50  0001 C CNN
F 1 "GND" H 6600 3450 50  0000 C CNN
F 2 "" H 6600 3600 50  0000 C CNN
F 3 "" H 6600 3600 50  0000 C CNN
	1    6600 3600
	1    0    0    -1  
$EndComp
$Comp
L VCC #PWR02
U 1 1 589E5F20
P 6850 2500
F 0 "#PWR02" H 6850 2350 50  0001 C CNN
F 1 "VCC" V 6850 2700 50  0000 C CNN
F 2 "" H 6850 2500 50  0000 C CNN
F 3 "" H 6850 2500 50  0000 C CNN
	1    6850 2500
	0    1    1    0   
$EndComp
$Comp
L VCC #PWR03
U 1 1 589E5F96
P 3600 3850
F 0 "#PWR03" H 3600 3700 50  0001 C CNN
F 1 "VCC" V 3600 4050 50  0000 C CNN
F 2 "" H 3600 3850 50  0000 C CNN
F 3 "" H 3600 3850 50  0000 C CNN
	1    3600 3850
	0    1    1    0   
$EndComp
$Comp
L VDD #PWR04
U 1 1 589E6012
P 6850 3100
F 0 "#PWR04" H 6850 2950 50  0001 C CNN
F 1 "VDD" V 6850 3300 50  0000 C CNN
F 2 "" H 6850 3100 50  0000 C CNN
F 3 "" H 6850 3100 50  0000 C CNN
	1    6850 3100
	0    1    1    0   
$EndComp
$Comp
L VDD #PWR05
U 1 1 589E609C
P 3800 4350
F 0 "#PWR05" H 3800 4200 50  0001 C CNN
F 1 "VDD" V 3800 4550 50  0000 C CNN
F 2 "" H 3800 4350 50  0000 C CNN
F 3 "" H 3800 4350 50  0000 C CNN
	1    3800 4350
	0    1    1    0   
$EndComp
$Comp
L CONN_01X02 P8
U 1 1 589E6D71
P 2300 3900
F 0 "P8" H 2300 4050 50  0000 C CNN
F 1 "CONN_01X02" V 2400 3900 50  0000 C CNN
F 2 "Terminal_Blocks:TerminalBlock_Pheonix_MKDS1.5-2pol" H 2300 3900 50  0001 C CNN
F 3 "" H 2300 3900 50  0000 C CNN
	1    2300 3900
	-1   0    0    1   
$EndComp
Text GLabel 5000 2600 0    60   Input ~ 0
MT_MS1
Text GLabel 5000 2700 0    60   Input ~ 0
MT_MS2
Text GLabel 5000 2800 0    60   Input ~ 0
MT_MS3
Text GLabel 3400 2900 2    60   Input ~ 0
MT_DIR
Text GLabel 3400 2800 2    60   Input ~ 0
MT_STEP
$Comp
L VDD #PWR06
U 1 1 589E87DA
P 8700 2350
F 0 "#PWR06" H 8700 2200 50  0001 C CNN
F 1 "VDD" H 8700 2500 50  0000 C CNN
F 2 "" H 8700 2350 50  0000 C CNN
F 3 "" H 8700 2350 50  0000 C CNN
	1    8700 2350
	-1   0    0    -1  
$EndComp
$Comp
L +5V #PWR07
U 1 1 589EB112
P 3300 2500
F 0 "#PWR07" H 3300 2350 50  0001 C CNN
F 1 "+5V" V 3300 2700 50  0000 C CNN
F 2 "" H 3300 2500 50  0000 C CNN
F 3 "" H 3300 2500 50  0000 C CNN
	1    3300 2500
	0    1    1    0   
$EndComp
$Comp
L +5V #PWR08
U 1 1 589EC4FB
P 2500 4750
F 0 "#PWR08" H 2500 4600 50  0001 C CNN
F 1 "+5V" V 2500 4950 50  0000 C CNN
F 2 "" H 2500 4750 50  0000 C CNN
F 3 "" H 2500 4750 50  0000 C CNN
	1    2500 4750
	0    -1   -1   0   
$EndComp
$Comp
L VCC #PWR09
U 1 1 589EF162
P 3050 5650
F 0 "#PWR09" H 3050 5500 50  0001 C CNN
F 1 "VCC" V 3050 5850 50  0000 C CNN
F 2 "" H 3050 5650 50  0000 C CNN
F 3 "" H 3050 5650 50  0000 C CNN
	1    3050 5650
	0    -1   -1   0   
$EndComp
$Comp
L CP C1
U 1 1 589F45BA
P 6750 3350
F 0 "C1" H 6775 3450 50  0000 L CNN
F 1 "CP" H 6775 3250 50  0000 L CNN
F 2 "Capacitors_ThroughHole:C_Radial_D8_L13_P3.8" H 6788 3200 50  0001 C CNN
F 3 "" H 6750 3350 50  0000 C CNN
	1    6750 3350
	1    0    0    -1  
$EndComp
$Comp
L GND #PWR010
U 1 1 589F4EA7
P 2600 4050
F 0 "#PWR010" H 2600 3800 50  0001 C CNN
F 1 "GND" H 2600 3900 50  0000 C CNN
F 2 "" H 2600 4050 50  0000 C CNN
F 3 "" H 2600 4050 50  0000 C CNN
	1    2600 4050
	1    0    0    -1  
$EndComp
$Comp
L GND #PWR011
U 1 1 589F4F6F
P 4050 5750
F 0 "#PWR011" H 4050 5500 50  0001 C CNN
F 1 "GND" H 4050 5600 50  0000 C CNN
F 2 "" H 4050 5750 50  0000 C CNN
F 3 "" H 4050 5750 50  0000 C CNN
	1    4050 5750
	1    0    0    -1  
$EndComp
$Comp
L R R2
U 1 1 589EAB8F
P 5250 2400
F 0 "R2" V 5300 2250 50  0000 C CNN
F 1 "R" V 5250 2400 50  0000 C CNN
F 2 "Resistors_ThroughHole:Resistor_Horizontal_RM7mm" V 5180 2400 50  0001 C CNN
F 3 "" H 5250 2400 50  0000 C CNN
	1    5250 2400
	0    -1   -1   0   
$EndComp
$Comp
L R R3
U 1 1 589EAB95
P 5250 2500
F 0 "R3" V 5300 2350 50  0000 C CNN
F 1 "R" V 5250 2500 50  0000 C CNN
F 2 "Resistors_ThroughHole:Resistor_Horizontal_RM7mm" V 5180 2500 50  0001 C CNN
F 3 "" H 5250 2500 50  0000 C CNN
	1    5250 2500
	0    -1   -1   0   
$EndComp
$Comp
L VDD #PWR012
U 1 1 589EAB9C
P 5000 2400
F 0 "#PWR012" H 5000 2250 50  0001 C CNN
F 1 "VDD" V 5000 2600 50  0000 C CNN
F 2 "" H 5000 2400 50  0000 C CNN
F 3 "" H 5000 2400 50  0000 C CNN
	1    5000 2400
	0    -1   -1   0   
$EndComp
Text GLabel 3400 2700 2    60   Input ~ 0
MT_EN
$Comp
L FUSE F1
U 1 1 58A6B537
P 2850 3850
F 0 "F1" H 2950 3900 50  0000 C CNN
F 1 "FUSE" H 2750 3800 50  0000 C CNN
F 2 "Fuse_Holders_and_Fuses:Fuse_TE5_Littlefuse-395Series" H 2850 3850 50  0001 C CNN
F 3 "" H 2850 3850 50  0000 C CNN
	1    2850 3850
	1    0    0    -1  
$EndComp
$Comp
L FUSE F2
U 1 1 58A7924E
P 2850 4750
F 0 "F2" H 2950 4800 50  0000 C CNN
F 1 "FUSE" H 2750 4700 50  0000 C CNN
F 2 "Fuse_Holders_and_Fuses:Fuse_TE5_Littlefuse-395Series" H 2850 4750 50  0001 C CNN
F 3 "" H 2850 4750 50  0000 C CNN
	1    2850 4750
	1    0    0    -1  
$EndComp
$Comp
L LM1117-3.3 U3
U 1 1 58A68B2C
P 4100 4750
F 0 "U3" H 4200 4500 50  0000 C CNN
F 1 "LM1117-3.3" H 4100 5000 50  0000 C CNN
F 2 "TO_SOT_Packages_THT:TO-220_Neutral123_Horizontal" H 4100 4750 50  0001 C CNN
F 3 "" H 4100 4750 50  0000 C CNN
	1    4100 4750
	1    0    0    -1  
$EndComp
$Comp
L CP C3
U 1 1 58A69351
P 3700 4950
F 0 "C3" H 3725 5050 50  0000 L CNN
F 1 "CP" H 3725 4850 50  0000 L CNN
F 2 "Capacitors_ThroughHole:C_Radial_D5_L11_P2.5" H 3738 4800 50  0001 C CNN
F 3 "" H 3700 4950 50  0000 C CNN
	1    3700 4950
	1    0    0    -1  
$EndComp
$Comp
L CP C4
U 1 1 58A69418
P 4500 4950
F 0 "C4" H 4525 5050 50  0000 L CNN
F 1 "CP" H 4525 4850 50  0000 L CNN
F 2 "Capacitors_ThroughHole:C_Radial_D5_L11_P2.5" H 4538 4800 50  0001 C CNN
F 3 "" H 4500 4950 50  0000 C CNN
	1    4500 4950
	1    0    0    -1  
$EndComp
$Comp
L GND #PWR013
U 1 1 58A695D2
P 4100 5250
F 0 "#PWR013" H 4100 5000 50  0001 C CNN
F 1 "GND" H 4100 5100 50  0000 C CNN
F 2 "" H 4100 5250 50  0000 C CNN
F 3 "" H 4100 5250 50  0000 C CNN
	1    4100 5250
	1    0    0    -1  
$EndComp
Text GLabel 2500 2700 0    60   Input ~ 0
IN_1A
$Comp
L GND #PWR014
U 1 1 58A84E57
P 9850 3600
F 0 "#PWR014" H 9850 3350 50  0001 C CNN
F 1 "GND" H 9850 3450 50  0000 C CNN
F 2 "" H 9850 3600 50  0000 C CNN
F 3 "" H 9850 3600 50  0000 C CNN
	1    9850 3600
	1    0    0    -1  
$EndComp
$Comp
L R R6
U 1 1 58A866F5
P 10000 3950
F 0 "R6" V 9950 4150 50  0000 C CNN
F 1 "R" V 10000 3950 50  0000 C CNN
F 2 "Resistors_ThroughHole:Resistor_Horizontal_RM7mm" V 9930 3950 50  0001 C CNN
F 3 "" H 10000 3950 50  0000 C CNN
	1    10000 3950
	0    1    1    0   
$EndComp
$Comp
L R R7
U 1 1 58A86953
P 10000 4050
F 0 "R7" V 10050 3850 50  0000 C CNN
F 1 "R" V 10000 4050 50  0000 C CNN
F 2 "Resistors_ThroughHole:Resistor_Horizontal_RM7mm" V 9930 4050 50  0001 C CNN
F 3 "" H 10000 4050 50  0000 C CNN
	1    10000 4050
	0    -1   -1   0   
$EndComp
$Comp
L R R8
U 1 1 58A869CD
P 10000 4150
F 0 "R8" V 9950 4350 50  0000 C CNN
F 1 "R" V 10000 4150 50  0000 C CNN
F 2 "Resistors_ThroughHole:Resistor_Horizontal_RM7mm" V 9930 4150 50  0001 C CNN
F 3 "" H 10000 4150 50  0000 C CNN
	1    10000 4150
	0    1    1    0   
$EndComp
$Comp
L R R9
U 1 1 58A86A4A
P 10000 4250
F 0 "R9" V 10050 4050 50  0000 C CNN
F 1 "R" V 10000 4250 50  0000 C CNN
F 2 "Resistors_ThroughHole:Resistor_Horizontal_RM7mm" V 9930 4250 50  0001 C CNN
F 3 "" H 10000 4250 50  0000 C CNN
	1    10000 4250
	0    -1   -1   0   
$EndComp
$Comp
L +3.3V #PWR015
U 1 1 58A8C627
P 4700 4750
F 0 "#PWR015" H 4700 4600 50  0001 C CNN
F 1 "+3.3V" V 4700 5000 50  0000 C CNN
F 2 "" H 4700 4750 50  0000 C CNN
F 3 "" H 4700 4750 50  0000 C CNN
	1    4700 4750
	0    1    1    0   
$EndComp
$Comp
L +3.3V #PWR016
U 1 1 58A9A8C6
P 9850 2350
F 0 "#PWR016" H 9850 2200 50  0001 C CNN
F 1 "+3.3V" H 9850 2490 50  0000 C CNN
F 2 "" H 9850 2350 50  0000 C CNN
F 3 "" H 9850 2350 50  0000 C CNN
	1    9850 2350
	1    0    0    -1  
$EndComp
Text GLabel 2500 2800 0    60   Input ~ 0
IN_1B
Text GLabel 2500 2500 0    60   Input ~ 0
IN_2A
Text GLabel 2500 2600 0    60   Input ~ 0
IN_2B
Text GLabel 5000 2500 0    60   Input ~ 0
MT_EN
Text GLabel 5000 3100 0    60   Input ~ 0
MT_STEP
Text GLabel 5000 3200 0    60   Input ~ 0
MT_DIR
Text GLabel 8700 3200 2    60   Input ~ 0
MT_MS1
Text GLabel 8700 3300 2    60   Input ~ 0
MT_MS2
Text GLabel 8700 3400 2    60   Input ~ 0
MT_MS3
Text GLabel 10350 4150 2    60   Input ~ 0
IN_1A
Text GLabel 10350 4250 2    60   Input ~ 0
IN_1B
Text GLabel 10350 3950 2    60   Input ~ 0
IN_2A
Text GLabel 10350 4050 2    60   Input ~ 0
IN_2B
Wire Wire Line
	5400 3200 5500 3200
Wire Wire Line
	5500 3100 5400 3100
Wire Wire Line
	7050 3000 6500 3000
Wire Wire Line
	6500 2900 7050 2900
Wire Wire Line
	7050 2800 6500 2800
Wire Wire Line
	6500 2700 7050 2700
Wire Wire Line
	6500 3100 6850 3100
Wire Wire Line
	6500 2500 6850 2500
Wire Wire Line
	5500 3000 5400 3000
Wire Wire Line
	5400 3000 5400 2900
Wire Wire Line
	5400 2900 5500 2900
Wire Wire Line
	5000 2800 5500 2800
Wire Wire Line
	5500 2700 5000 2700
Wire Wire Line
	5000 2600 5500 2600
Wire Wire Line
	5000 3100 5100 3100
Wire Wire Line
	5100 3200 5000 3200
Wire Wire Line
	8700 3200 8600 3200
Wire Wire Line
	8600 3300 8700 3300
Wire Wire Line
	8700 3400 8600 3400
Wire Wire Line
	3650 5650 3550 5650
Wire Wire Line
	3100 4750 3200 4750
Wire Wire Line
	3600 3850 3500 3850
Wire Wire Line
	3150 5650 3050 5650
Wire Wire Line
	6500 3200 6600 3200
Wire Wire Line
	6600 2600 6600 3600
Wire Wire Line
	6600 2600 6500 2600
Connection ~ 6600 3200
Wire Wire Line
	6750 3500 6750 3550
Wire Wire Line
	6750 3550 6600 3550
Connection ~ 6600 3550
Wire Wire Line
	6750 3200 6750 2500
Connection ~ 6750 2500
Wire Wire Line
	3950 5650 4050 5650
Wire Wire Line
	4050 5650 4050 5750
Wire Wire Line
	2500 3950 2600 3950
Wire Wire Line
	2600 3950 2600 4050
Wire Wire Line
	5000 2500 5100 2500
Wire Wire Line
	5100 2400 5000 2400
Wire Wire Line
	5400 2400 5500 2400
Wire Wire Line
	5500 2400 5500 2500
Wire Wire Line
	5500 2500 5400 2500
Wire Wire Line
	2500 3850 2600 3850
Wire Wire Line
	3200 3850 3100 3850
Wire Wire Line
	2500 4750 2600 4750
Wire Wire Line
	3500 4750 3800 4750
Wire Wire Line
	4100 5050 4100 5250
Wire Wire Line
	4500 5150 4500 5100
Wire Wire Line
	3700 5100 3700 5150
Wire Wire Line
	3700 5150 4500 5150
Connection ~ 4100 5150
Wire Wire Line
	4500 4800 4500 4750
Wire Wire Line
	4400 4750 4700 4750
Connection ~ 4500 4750
Wire Wire Line
	3700 4350 3700 4800
Connection ~ 3700 4750
Wire Wire Line
	8700 2650 8600 2650
Wire Wire Line
	8700 2550 8600 2550
Wire Wire Line
	8600 2450 8700 2450
Wire Wire Line
	3400 2700 3200 2700
Wire Wire Line
	3200 2800 3400 2800
Wire Wire Line
	3400 2900 3200 2900
Wire Wire Line
	3800 4350 3700 4350
Wire Wire Line
	3200 2500 3300 2500
Wire Wire Line
	9750 4250 9850 4250
Wire Wire Line
	9750 4150 9850 4150
Wire Wire Line
	9750 4050 9850 4050
Wire Wire Line
	9850 3950 9750 3950
Wire Wire Line
	8700 2350 8700 2650
Connection ~ 8700 2450
Connection ~ 8700 2550
Wire Wire Line
	10350 3950 10150 3950
Wire Wire Line
	10150 4050 10350 4050
Wire Wire Line
	10350 4150 10150 4150
Wire Wire Line
	10150 4250 10350 4250
Wire Wire Line
	2500 2500 2700 2500
Wire Wire Line
	2700 2600 2500 2600
Wire Wire Line
	2500 2700 2700 2700
Wire Wire Line
	2700 2800 2500 2800
$Comp
L LED D4
U 1 1 58A7BED6
P 3350 6250
F 0 "D4" H 3350 6350 50  0000 C CNN
F 1 "LED" H 3350 6150 50  0000 C CNN
F 2 "LEDs:LED-5MM" H 3350 6250 50  0001 C CNN
F 3 "" H 3350 6250 50  0000 C CNN
	1    3350 6250
	-1   0    0    -1  
$EndComp
$Comp
L R R11
U 1 1 58A7C25B
P 3800 6250
F 0 "R11" V 3880 6250 50  0000 C CNN
F 1 "R" V 3800 6250 50  0000 C CNN
F 2 "Resistors_ThroughHole:Resistor_Horizontal_RM7mm" V 3730 6250 50  0001 C CNN
F 3 "" H 3800 6250 50  0000 C CNN
	1    3800 6250
	0    -1   -1   0   
$EndComp
Wire Wire Line
	3550 6250 3650 6250
$Comp
L GND #PWR017
U 1 1 58A7CAEC
P 4050 6350
F 0 "#PWR017" H 4050 6100 50  0001 C CNN
F 1 "GND" H 4050 6200 50  0000 C CNN
F 2 "" H 4050 6350 50  0000 C CNN
F 3 "" H 4050 6350 50  0000 C CNN
	1    4050 6350
	1    0    0    -1  
$EndComp
Wire Wire Line
	3950 6250 4050 6250
Wire Wire Line
	4050 6250 4050 6350
$Comp
L VDD #PWR018
U 1 1 58A7CE13
P 3050 6250
F 0 "#PWR018" H 3050 6100 50  0001 C CNN
F 1 "VDD" V 3050 6450 50  0000 C CNN
F 2 "" H 3050 6250 50  0000 C CNN
F 3 "" H 3050 6250 50  0000 C CNN
	1    3050 6250
	0    -1   -1   0   
$EndComp
Wire Wire Line
	3150 6250 3050 6250
$Comp
L CONN_02X05 P1
U 1 1 58A7DCD2
P 2950 2700
F 0 "P1" H 2950 3000 50  0000 C CNN
F 1 "CONN_02X05" H 2950 2400 50  0000 C CNN
F 2 "Connect:IDC_Header_Straight_10pins" H 2950 1500 50  0001 C CNN
F 3 "" H 2950 1500 50  0000 C CNN
	1    2950 2700
	1    0    0    -1  
$EndComp
$Comp
L GND #PWR019
U 1 1 58A5B4C0
P 2600 3000
F 0 "#PWR019" H 2600 2750 50  0001 C CNN
F 1 "GND" H 2600 2850 50  0000 C CNN
F 2 "" H 2600 3000 50  0000 C CNN
F 3 "" H 2600 3000 50  0000 C CNN
	1    2600 3000
	1    0    0    -1  
$EndComp
Wire Wire Line
	2600 3000 2600 2900
Wire Wire Line
	2600 2900 2700 2900
$Comp
L CONN_01X04 P5
U 1 1 58A7FADD
P 9550 2600
F 0 "P5" H 9550 2850 50  0000 C CNN
F 1 "CONN_01X04" V 9650 2600 50  0000 C CNN
F 2 "Pin_Headers:Pin_Header_Straight_1x04" H 9550 2600 50  0001 C CNN
F 3 "" H 9550 2600 50  0000 C CNN
	1    9550 2600
	-1   0    0    -1  
$EndComp
$Comp
L CONN_01X04 P6
U 1 1 58A7FB55
P 9550 3350
F 0 "P6" H 9550 3600 50  0000 C CNN
F 1 "CONN_01X04" V 9650 3350 50  0000 C CNN
F 2 "Pin_Headers:Pin_Header_Straight_1x04" H 9550 3350 50  0001 C CNN
F 3 "" H 9550 3350 50  0000 C CNN
	1    9550 3350
	-1   0    0    -1  
$EndComp
$Comp
L CONN_01X04 P7
U 1 1 58A7FBDF
P 9550 4100
F 0 "P7" H 9550 4350 50  0000 C CNN
F 1 "CONN_01X04" V 9650 4100 50  0000 C CNN
F 2 "Pin_Headers:Pin_Header_Straight_1x04" H 9550 4100 50  0001 C CNN
F 3 "" H 9550 4100 50  0000 C CNN
	1    9550 4100
	-1   0    0    -1  
$EndComp
Wire Wire Line
	9850 3200 9850 3600
Wire Wire Line
	9850 3500 9750 3500
Wire Wire Line
	9750 3400 9850 3400
Connection ~ 9850 3500
Wire Wire Line
	9750 3300 9850 3300
Connection ~ 9850 3400
Wire Wire Line
	9750 3200 9850 3200
Connection ~ 9850 3300
Wire Wire Line
	9750 2450 9850 2450
Wire Wire Line
	9850 2350 9850 2750
Wire Wire Line
	9850 2550 9750 2550
Connection ~ 9850 2450
Wire Wire Line
	9850 2650 9750 2650
Connection ~ 9850 2550
Wire Wire Line
	9850 2750 9750 2750
Connection ~ 9850 2650
$EndSCHEMATC
